<svg xmlns="http://www.w3.org/2000/svg" viewBox="0 0 73.22 96.1">
  <title>ic-nav-3</title>
  <g>
    <path d="M43.92,30.27c6.9-7.77,3.65-23.81-10.05-23.81-14.12,0-17.79,16.9-9.62,24.41l-4.39,4.82C7.93,24.7,13.29,0,33.94,0,54,0,58.75,23.48,48.63,34.85Z" fill="#fff"/>
    <path d="M33.67,95C31.63,88.67,21,76.42,1.11,73.26c1-8.39,5.49-11.34,12.68-10.71,2.73.24,10.1,1.71,10.1,1.71a195.84,195.84,0,0,0,3.74-43.09c-.17-7.42,12.21-8.51,12.49-.2.14,4.07.77,14.38,1.44,24.77,13.63,1,23.12,5.89,30.55,14.25-3.31,11.69-5.33,30.83-5.33,30.83Z" fill="#fff" fill-opacity="0" stroke="#fff" stroke-miterlimit="50" stroke-width="2"/>
  </g>
</svg>
