<?xml version="1.0" encoding="UTF-8"?>
<svg width="64px" height="64px" viewBox="0 0 64 64" version="1.1" xmlns="http://www.w3.org/2000/svg" xmlns:xlink="http://www.w3.org/1999/xlink">
    <!-- Generator: sketchtool 52.5 (67469) - http://www.bohemiancoding.com/sketch -->
    <title>BF5DC724-676D-467C-9775-7B81D4F8401D</title>
    <desc>Created with sketchtool.</desc>
    <g id="Symbols" stroke="none" stroke-width="1" fill="none" fill-rule="evenodd">
        <g id="Elements-/-Coats--/-ZP">
            <g id="coat_zp" transform="translate(6.000000, 0.000000)">
                <path d="M48.7778024,12.6437292 C48.4865705,12.4377358 47.4708102,11.7842397 47.1866815,11.56404 C46.2348502,10.8253052 45.1196448,9.74561598 44.5016648,8.54517203 C44.3596004,8.25394007 44.0186459,7.71409545 43.8765816,7.3518313 C43.7487236,7.13163152 43.6492786,6.76936737 43.2941176,6.47813541 C43.0739179,6.31476138 42.7968923,6.14428413 42.363596,6.08035516 C41.8805771,6.00932297 41.2128746,6.10876804 40.7582686,6.43551609 C40.5167592,6.64150943 40.3533851,6.86881243 40.2468368,7.1600444 C40.1473918,7.52941176 40.2468368,7.93429523 40.4102109,8.15449501 C40.5380688,8.34628191 40.9074362,8.57358491 41.2483907,8.63751387 C41.0423973,8.87902331 40.3462819,9.51120977 40.1687014,9.66748058 C40.1047725,9.73140954 40.0692564,9.76692564 39.991121,9.83085461 C40.1331853,9.26259711 39.8916759,8.82930078 39.4938957,8.53096559 C39.2310766,8.33917869 38.9114317,8.2681465 38.5775805,8.21132075 C38.3005549,8.16870144 38.108768,8.14739179 37.8175361,8.16870144 L37.4339623,8.24683685 L38.2508324,6.41420644 C37.5618202,5.1427303 36.6312986,4.12697003 35.6084351,3.24617092 C34.27303,2.10965594 32.5895671,1.27857936 30.8492786,0.738734739 C29.272364,0.241509434 27.645727,0.0781354051 26.0830189,0.0639289678 L26.054606,0.0639289678 C24.4776915,0.0781354051 22.8510544,0.241509434 21.2741398,0.738734739 C19.5409545,1.27857936 17.8645949,2.10965594 16.5220866,3.24617092 C15.5063263,4.11986681 14.5900111,5.1427303 13.8796892,6.41420644 L14.6965594,8.24683685 L14.3129856,8.16870144 C14.0217536,8.15449501 13.8299667,8.16870144 13.5529412,8.21132075 C13.2332963,8.27524972 12.8923418,8.33917869 12.636626,8.53096559 C12.2459489,8.82219756 11.9973363,9.2554939 12.1536071,9.83085461 C12.0683685,9.76692564 12.0257492,9.73140954 11.9618202,9.66748058 C11.7842397,9.50410655 11.0881243,8.87902331 10.882131,8.63751387 C11.2372919,8.57358491 11.5924528,8.34628191 11.7345172,8.15449501 C11.9120977,7.93429523 11.9973363,7.52941176 11.8978912,7.1600444 C11.7984462,6.86881243 11.6350721,6.63440622 11.3864595,6.43551609 C10.9531632,6.11587125 10.2783574,6.01642619 9.78113208,6.08035516 C9.34783574,6.14428413 9.07081021,6.30765816 8.86481687,6.47813541 C8.4954495,6.76936737 8.39600444,7.13873474 8.28235294,7.3518313 C8.11897891,7.72119867 7.78512764,8.25394007 7.64306326,8.54517203 C7.03218646,9.73851276 5.92408435,10.818202 4.95804661,11.56404 C4.69522752,11.7842397 3.6581576,12.4377358 3.36692564,12.6437292 C1.66215316,12.3098779 -0.127857936,13.4037736 0.0284128746,15.236404 C0.0426193119,15.4423973 0.0710321865,15.6057714 0.142064373,15.8330744 C0.284128746,16.2663707 0.497225305,16.5291898 0.724528302,16.8133185 C1.70477248,17.7651498 3.71498335,17.4881243 4.02042175,16.2592675 C4.11986681,15.9538291 4.09855716,15.7194229 4.04883463,15.4850166 C4.10566038,15.6483907 4.14827969,15.6768036 4.24062153,15.8899001 C4.418202,16.2734739 4.8017758,17.509434 4.82308546,18.0492786 C4.50344062,17.6159822 3.64395117,17.6799112 3.24617092,17.9214206 C2.52164262,18.3902331 2.53584906,18.8732519 2.57136515,19.5409545 C3.44506104,19.1573807 3.98490566,20.109212 4.19800222,20.8124306 C4.76625971,22.4461709 4.79467259,24.5132075 4.43951165,26.0617092 C4.43951165,26.0475028 4.42530522,26.2037736 4.36847947,26.3671476 C4.03462819,24.8683685 2.209101,24.6481687 1.30699223,25.3158713 C0.973140954,25.5218646 0.738734739,25.8415094 0.546947836,26.1895671 C0.383573807,26.5234184 0.284128746,26.9283019 0.284128746,27.3615982 C0.340954495,27.7806881 0.383573807,27.9866815 0.561154273,28.3134295 C0.781354051,28.6685905 1.0299667,28.9385128 1.46326304,29.2297447 C1.68346282,29.3576027 1.81842397,29.4499445 2.05993341,29.6133185 C2.57136515,30.4301887 3.79311876,31.2328524 4.08435072,32.4972253 C4.08435072,32.5256382 4.12697003,32.9802442 4.1127636,32.9944506 C3.45216426,33.4916759 3.38823529,34.1309656 3.61553829,34.8625971 C3.85704772,35.5374029 4.54605993,35.8641509 5.2208657,35.9991121 C5.59023307,36.9509434 5.55471698,37.9809101 5.36293008,39.4867925 C5.26348502,40.3462819 5.0290788,41.29101 4.89411765,42.1718091 C4.75205327,43.1875694 4.63129856,44.1536071 4.67391787,45.2617092 C4.70233074,46.2703663 4.90122087,47.3642619 5.18534961,48.4155383 C5.66836848,50.1203108 6.66281909,51.6972253 7.96981132,52.8479467 C8.65882353,53.4872364 9.36914539,54.027081 10.5766926,54.5527192 C11.7842397,54.9576027 12.8142064,55.0925638 13.9152053,55.32697 C14.9238624,55.5329634 16.2166482,55.7176471 17.1826859,56.0017758 C17.9427303,56.2077691 19.1005549,56.626859 20.0168701,57.2377358 C20.6419534,57.6568257 21.2386238,58.21798 21.5937847,58.9567148 C21.7713651,59.3615982 22.0128746,60.1145394 22.1762486,60.7112098 C22.2188679,60.9029967 22.254384,60.9385128 22.2614872,61.0947836 L23.4335183,60.9527192 L23.6963374,61.954273 L24.527414,61.790899 C24.8612653,62.799556 25.2874584,63.5809101 26.0403996,63.9786903 C26.7791343,63.5809101 27.2195339,62.799556 27.5391787,61.790899 L28.3702553,61.954273 L28.6330744,60.9527192 L29.7980022,61.0947836 C29.8264151,60.9527192 29.8406215,60.9029967 29.8832408,60.7112098 C30.0466149,60.1145394 30.2881243,59.3758047 30.4799112,58.9567148 C30.8137625,58.21798 31.4104329,57.6568257 32.0426193,57.2377358 C32.9447281,56.626859 34.1167592,56.2077691 34.8768036,56.0017758 C35.8570477,55.7247503 37.1356271,55.5329634 38.1584906,55.32697 C39.2523862,55.099667 40.2681465,54.9576027 41.4756937,54.5527192 C42.6832408,54.027081 43.4006659,53.4872364 44.0825749,52.8479467 C45.3895671,51.6901221 46.3840178,50.127414 46.8670366,48.4155383 C47.1440622,47.3642619 47.3642619,46.2703663 47.3926748,45.2617092 C47.4210877,44.1536071 47.3145394,43.1875694 47.1582686,42.1718091 C47.0304107,41.2981132 46.7960044,40.3533851 46.6894562,39.4867925 C46.5118757,37.9880133 46.4692564,36.9438402 46.8315205,35.9991121 C47.5063263,35.8712542 48.1882353,35.5302997 48.4510544,34.8625971 C48.6712542,34.1380688 48.5931188,33.4916759 47.9396226,32.9944506 C47.9254162,32.9802442 47.9680355,32.5256382 47.982242,32.4972253 C48.2734739,31.2257492 49.4810211,30.4230855 49.9924528,29.6133185 C50.2339623,29.4499445 50.3831299,29.3718091 50.6033296,29.2297447 C51.0224195,28.9385128 51.2710322,28.6614872 51.491232,28.3134295 C51.6688124,27.9937847 51.7114317,27.7877913 51.7682575,27.3615982 C51.7824639,26.9425083 51.6830189,26.5305216 51.5054384,26.1895671 C51.3278579,25.8344062 51.0863485,25.5147614 50.745394,25.3158713 C49.8432852,24.6410655 48.0248613,24.8612653 47.6839068,26.3671476 C47.6199778,26.2037736 47.6057714,26.0475028 47.6057714,26.0617092 C47.2506104,24.5132075 47.2861265,22.4461709 47.8472808,20.8124306 C48.0674806,20.109212 48.6215316,19.1644839 49.5023307,19.5409545 C49.5449501,18.8661487 49.5449501,18.3831299 48.827525,17.9214206 C48.4297447,17.6870144 47.5560488,17.6159822 47.2506104,18.0492786 C47.2790233,17.509434 47.6554939,16.2734739 47.8330744,15.8899001 C47.9112098,15.6697003 47.9467259,15.6483907 48.0248613,15.4850166 C47.9609323,15.7194229 47.9325194,15.9538291 48.0390677,16.2592675 C48.3445061,17.4810211 50.354717,17.7580466 51.3349612,16.8133185 C51.5764706,16.536293 51.7682575,16.2734739 51.9174251,15.8330744 C51.9884573,15.5986681 52.0168701,15.4423973 52.0310766,15.236404 C52.272586,13.3966704 50.4967814,12.3027747 48.7778024,12.6437292 Z" id="path3583_2_" fill="#1F221D"></path>
                <rect id="Rectangle" fill="#00924F" x="7.7709212" y="13.1977802" width="36.6170921" height="19.4415094"></rect>
                <path d="M44.3880133,37.2137625 C44.3880133,37.3132075 44.3880133,37.4197558 44.3880133,37.5192009 C44.3880133,47.7691454 36.1624861,56.1438402 26.0901221,56.1438402 C15.9964484,56.1438402 7.7709212,47.7762486 7.7709212,37.5192009 C7.7709212,37.4197558 7.7709212,37.3132075 7.7709212,37.2137625 L7.7709212,33.1578246 L44.3880133,33.1578246 L44.3880133,37.2137625 Z" id="path3587_3_" fill="#DB156D"></path>
                <path d="M40.9074362,14.7533851 L40.8648169,14.7107658 C40.7369589,14.6113208 40.6304107,14.5971143 40.4670366,14.6255272 L40.381798,14.6539401 L38.8688124,15.5063263 L38.2721421,15.1014428 C38.1300777,15.0375139 37.9951165,15.07303 37.8530522,15.1298557 L36.1340733,16.0958935 L34.0599334,17.1755827 C31.4885683,18.5536071 28.9314095,19.9387347 26.3813541,21.3309656 C23.7957825,19.945838 21.2173141,18.5678135 18.6175361,17.1755827 L16.5433962,16.0958935 L14.6894562,15.0162042 C14.2348502,14.9025527 14.0927858,15.1795782 13.7376249,15.4068812 L12.2743618,14.6681465 L12.1962264,14.6397336 C11.8765816,14.5758047 11.6279689,14.7675916 11.6421754,15.0943396 L11.6563818,15.172475 L11.6847947,15.236404 L11.727414,15.3145394 L24.399556,22.4035516 C23.3695893,22.9647059 22.3467259,23.5187569 21.3096559,24.072808 L20.9047725,24.136737 L20.8337403,24.0941176 C20.791121,24.0657048 20.7342952,24.0159822 20.6703663,23.9946726 C20.5851276,23.9520533 20.4785794,23.9236404 20.3933407,23.8952275 C20.3649279,23.8952275 20.3507214,23.8952275 20.3152053,23.8952275 L20.2015538,23.8810211 C20.1021088,23.8952275 20.0097669,23.9236404 19.9103219,23.9662597 L19.8250832,24.0301887 C19.6475028,24.1722531 19.5693674,24.3072142 19.491232,24.5132075 L19.4628191,24.6552719 C19.4628191,24.6552719 19.4486127,24.6694784 19.4486127,24.6836848 C19.4059933,24.7476138 19.3562708,24.754717 19.3065483,24.7831299 C19.1928968,24.8257492 19.0863485,24.8257492 18.9513873,24.8115427 L18.8874584,24.7973363 L18.8235294,24.7831299 L18.7596004,24.754717 L18.7027747,24.7405105 L18.6601554,24.7120977 C18.5607103,24.7263041 18.5322974,24.7405105 18.518091,24.8399556 L18.5607103,24.8825749 C18.5891232,24.9109878 18.6246393,24.9465039 18.6459489,24.9536071 C18.6743618,24.9678135 18.6885683,24.9678135 18.7169811,24.98202 L19.2,25.209323 L17.900111,25.5431743 L16.763596,25.7349612 C16.5576027,25.7775805 16.3587125,25.8344062 16.1527192,25.8770255 C15.7194229,25.9764706 15.2648169,26.1398446 14.8173141,26.2108768 L12.7218646,26.8217536 C12.5016648,26.9069922 12.3524972,26.9851276 12.2672586,27.2053274 L12.2388457,27.290566 C12.2246393,27.4681465 12.2104329,27.6741398 12.2104329,27.87303 L12.2104329,28.0932297 C12.2246393,29.0592675 12.4448391,30.1176471 13.4463929,30.5580466 L13.5600444,30.5864595 C13.7802442,30.6148724 13.9649279,30.6006659 14.1851276,30.5580466 L14.327192,30.5154273 L15.0375139,30.1105438 C15.0801332,30.082131 15.1369589,30.0466149 15.2008879,30.0324084 C15.3287458,29.9613762 15.4779134,29.8903441 15.6057714,29.8051054 C15.6625971,29.7766926 15.7194229,29.72697 15.7833518,29.7056604 C15.9609323,29.5920089 16.1172031,29.4499445 16.2947836,29.3220866 C16.6286349,29.0592675 16.9198668,28.782242 17.2466149,28.49101 C17.3247503,28.4128746 17.3886792,28.3631521 17.4668147,28.2992231 C17.7438402,28.0719201 18.0350721,27.8446171 18.3334073,27.6599334 C18.5962264,27.4823529 19.1928968,27.2053274 19.1928968,27.2053274 L19.4486127,27.2763596 L19.5054384,27.2834628 L19.6617092,26.9922309 C19.6830189,26.9567148 19.718535,26.9211987 19.7611543,26.9069922 C20.0239734,26.8075472 20.1518313,27.0845727 19.881909,27.2763596 L19.7682575,27.3402886 C19.7398446,27.3402886 19.7114317,27.3402886 19.6830189,27.3260821 C19.6403996,27.3260821 19.5977802,27.3118757 19.5409545,27.2976693 L19.4983352,27.3829079 L20.2370699,27.9085461 L20.3223085,27.9085461 C20.3507214,27.8943396 20.3649279,27.8943396 20.3862375,27.8801332 L20.400444,27.8659267 L20.4146504,27.8517203 L20.8053274,27.127192 C20.8053274,27.0987791 20.8195339,27.0490566 20.8195339,27.0277469 C20.8337403,26.9851276 20.8337403,26.9496115 20.8337403,26.9140954 C20.8195339,26.8146504 20.7698113,26.7223085 20.7342952,26.6228635 C20.7058824,26.5447281 20.6703663,26.4807991 20.6561598,26.3884573 L20.7982242,26.3742508 C20.8621532,26.3742508 20.9260821,26.3742508 21.0042175,26.3742508 C21.0681465,26.3742508 21.1036626,26.3742508 21.1675916,26.3600444 L21.1675916,26.5021088 C21.1675916,26.5447281 21.1675916,26.5873474 21.1533851,26.6299667 C21.1533851,26.6583796 21.1533851,26.6938957 21.1675916,26.7152053 C21.2244173,26.8288568 21.345172,26.8430633 21.4588235,26.8572697 L21.5227525,26.8572697 L21.700333,26.8288568 L22.0057714,26.7578246 L21.9418424,26.6441731 L21.8779134,26.6441731 C21.6719201,26.6015538 21.7642619,26.5021088 21.8210877,26.3245283 L22.0128746,25.9054384 C23.4193119,25.081465 24.8328524,24.2716981 26.2677026,23.4477248 L30.6290788,25.891232 L30.8492786,26.3245283 L30.9345172,26.5305216 C30.9487236,26.6299667 30.8492786,26.6583796 30.7285239,26.6441731 L30.6859046,26.7578246 L30.9771365,26.8288568 C31.0765816,26.8430633 31.1689234,26.8572697 31.2683685,26.8572697 C31.3962264,26.8288568 31.5311876,26.7862375 31.5240844,26.6228635 L31.5098779,26.4950055 L31.5098779,26.3529412 C31.5738069,26.3671476 31.6235294,26.3671476 31.6732519,26.3671476 C31.7513873,26.3671476 31.8153163,26.3671476 31.8934517,26.3671476 L32.0355161,26.3813541 C32.0071032,26.4523862 31.9928968,26.5234184 31.9573807,26.6015538 C31.9431743,26.6299667 31.9289678,26.6654828 31.9147614,26.7009989 C31.8863485,26.7649279 31.8579356,26.8288568 31.8437292,26.9069922 C31.8437292,26.9496115 31.8437292,26.9780244 31.8579356,27.0206437 C31.8579356,27.0490566 31.8721421,27.0916759 31.8863485,27.1200888 L32.2201998,27.745172 L32.2841287,27.8588235 L32.2983352,27.87303 C32.3125416,27.8872364 32.3267481,27.8872364 32.3622642,27.9014428 L32.4475028,27.9014428 L33.1720311,27.3900111 L33.1294118,27.2976693 C32.9376249,27.3615982 32.8879023,27.3331853 32.7245283,27.2195339 C32.6392897,27.1200888 32.6250832,27.0561598 32.6961154,26.9425083 C32.8239734,26.8714761 32.8594895,26.8714761 32.9873474,26.9425083 L33.1507214,27.2976693 L33.2288568,27.2834628 L33.4703663,27.2124306 C33.8255272,27.4042175 34.1593785,27.6173141 34.4861265,27.8517203 C35.4379578,28.5265261 36.1624861,29.2226415 37.1853496,29.7482797 C38.1655938,30.2170921 38.7338513,30.8847947 39.7567148,30.0679245 C40.3960044,29.5138735 40.3533851,28.9598224 40.3960044,28.1216426 L40.381798,27.9298557 C40.3533851,27.3758047 40.218424,26.7720311 39.5933407,26.608657 C39.3873474,26.5305216 38.9682575,26.4807991 38.7551609,26.4168701 C38.4,26.3316315 38.172697,26.2108768 37.8246393,26.1398446 C37.6825749,26.1114317 37.5334073,26.0759156 37.3700333,26.054606 C36.9154273,25.9693674 36.4679245,25.8770255 35.9991121,25.8130966 C35.4876804,25.7278579 35.2887902,25.5715871 34.7773585,25.4792453 L33.6408435,25.0459489 L33.8326304,24.6623751 L33.818424,24.6339623 L33.818424,24.5771365 L33.7971143,24.5558269 L33.7829079,24.5416204 L33.6834628,24.4990011 L33.3140954,24.7618202 L33.2288568,24.7192009 L33.1294118,24.6552719 C33.1294118,24.591343 33.1294118,24.5558269 33.1294118,24.5132075 C33.1152053,24.0799112 32.8097669,23.8526082 32.390677,23.8526082 L32.2770255,23.8668147 C32.2628191,23.8668147 32.2628191,23.8810211 32.2486127,23.8810211 C32.1704772,23.8952275 32.1065483,23.9236404 32.0284129,23.9520533 C31.9644839,23.9804661 31.9147614,24.0301887 31.8508324,24.0514983 L31.7869034,24.0941176 L31.3536071,23.9520533 C30.3165372,23.3980022 29.2794673,22.8510544 28.2495006,22.2970033 C32.4261931,19.9316315 36.6739179,17.6017758 40.9500555,15.2719201 L40.9926748,15.1937847 C41.0352941,15.0446171 41.0210877,14.9167592 40.9074362,14.7533851 Z M20.8053274,24.6481687 C20.663263,24.6623751 20.5283019,24.690788 20.400444,24.7120977 C20.3223085,24.7263041 20.2583796,24.7405105 20.1802442,24.7405105 L20.0807991,24.754717 C20.0026637,24.754717 19.9387347,24.7831299 19.8605993,24.7831299 C19.8321865,24.7831299 19.8037736,24.7689234 19.7753607,24.7689234 C19.7114317,24.6836848 19.6972253,24.6552719 19.7114317,24.5629301 L19.7256382,24.4990011 C19.7682575,24.3853496 19.8250832,24.2930078 19.9174251,24.2077691 C20.0026637,24.1296337 20.0594895,24.0941176 20.1802442,24.0941176 C20.2512764,24.0799112 20.3223085,24.0941176 20.400444,24.1083241 C20.499889,24.136737 20.5922309,24.1935627 20.7058824,24.2503885 C20.7627081,24.2788013 20.8195339,24.3143174 20.8834628,24.3498335 L20.9260821,24.3924528 L20.9687014,24.4350721 L21.0823529,24.5984462 C20.9829079,24.6126526 20.890566,24.6481687 20.8053274,24.6481687 Z M31.6874584,24.4421754 L31.7300777,24.399556 L31.7940067,24.3569367 C31.836626,24.3285239 31.8934517,24.2788013 31.9573807,24.2574917 C32.0426193,24.2148724 32.1207547,24.1580466 32.2201998,24.1296337 L32.2344062,24.1296337 C32.2628191,24.1154273 32.2983352,24.1154273 32.3196448,24.1012209 C32.5966704,24.072808 32.8310766,24.1651498 32.845283,24.4705882 L32.845283,24.5132075 C32.8310766,24.5416204 32.8310766,24.5558269 32.8310766,24.5771365 C32.8026637,24.6197558 32.7884573,24.6410655 32.7529412,24.6765816 L32.6890122,24.690788 C32.61798,24.7049945 32.5611543,24.690788 32.4830189,24.690788 C32.3977802,24.690788 32.291232,24.690788 32.2059933,24.6765816 C32.0781354,24.6765816 31.9431743,24.6623751 31.8082131,24.6623751 L31.5738069,24.6197558 L31.6874584,24.4421754 Z" id="Shape" fill="#1F221D" fill-rule="nonzero"></path>
                <path d="M21.1604883,25.3584906 C20.8834628,24.8754717 20.1944506,24.9749168 19.9245283,25.1382908 C19.718535,25.2235294 19.590677,25.4579356 19.3704772,25.4934517 C17.8716981,25.7846837 16.3800222,26.0759156 14.6752497,26.6512764 C14.6113208,26.6654828 14.5615982,26.8714761 14.5615982,26.8714761 L14.5331853,27.290566 L19.0863485,25.8415094 C19.263929,25.7988901 19.4415094,25.763374 19.5551609,25.827303 C19.6972253,25.8415094 19.6688124,26.1611543 19.7469478,26.2961154 C19.8037736,26.3955605 19.8250832,26.4736959 19.8748058,26.5589345 C19.9884573,26.7223085 20.1802442,26.83596 20.208657,27.0277469 C20.2370699,27.191121 20.0950055,27.3473918 20.045283,27.4965594 L20.2867925,27.6741398 L20.5780244,27.1627081 C20.6419534,27.0774695 20.4927858,26.9567148 20.4501665,26.8714761 C20.3933407,26.7081021 20.336515,26.5518313 20.2441731,26.4026637 C20.1589345,26.2605993 20.0168701,26.1611543 19.9529412,26.0119867 C19.8890122,25.8699223 19.8108768,25.6923418 19.8677026,25.5431743 C19.9103219,25.4437292 20.0879023,25.4153163 20.2015538,25.4295228 C20.3152053,25.4295228 20.43596,25.5005549 20.4927858,25.5928968 C20.5780244,25.7207547 20.5709212,25.8557159 20.6064373,25.9977802 C20.6206437,26.0830189 20.6845727,26.1256382 20.8124306,26.0972253 L21.345172,25.9693674 C21.3877913,25.9409545 21.3877913,25.8699223 21.3735849,25.827303 L21.1604883,25.3584906 Z" id="path3593_3_" fill="#FFC200"></path>
                <path d="M19.5196448,26.4239734 C19.5054384,26.3387347 19.5196448,26.2605993 19.5196448,26.1966704 C19.5054384,26.1114317 19.5835738,25.990677 19.5054384,25.9551609 C19.3136515,25.8699223 19.1857936,25.9835738 18.9940067,26.054606 C18.7880133,26.1540511 18.5607103,26.2463929 18.2836848,26.3103219 C17.8930078,26.3742508 17.5449501,26.4879023 17.1755827,26.6441731 C17.1755827,26.6441731 16.1243063,27.0135405 16.0674806,27.0348502 C16.0106548,27.0490566 15.3074362,27.354495 15.3074362,27.354495 L14.6468368,27.5320755 C14.3698113,27.6173141 14.2916759,27.7096559 14.4266371,28.0008879 L14.5402886,28.2779134 L14.5687014,28.7467259 C14.6823529,28.9100999 14.845727,28.9243063 14.9735849,28.8106548 C15.2648169,28.6472808 15.5702553,28.5194229 15.8472808,28.3560488 C16.5220866,27.9014428 17.0690344,27.5960044 17.7012209,27.0845727 C17.7580466,27.0419534 17.8290788,27.0206437 17.9072142,27.0135405 C17.9853496,26.9993341 18.0705882,27.0135405 18.1345172,26.9851276 C18.1629301,26.9709212 18.1984462,26.9211987 18.2197558,26.899889 C18.4399556,26.7862375 18.6885683,26.6938957 18.9158713,26.5944506 C18.9940067,26.5518313 19.0792453,26.5163152 19.1431743,26.4950055 C19.1857936,26.4807991 19.2426193,26.4310766 19.2852386,26.4523862 C19.3136515,26.4807991 19.3278579,26.5518313 19.2994451,26.5660377 C18.9798002,26.7862375 18.5251942,26.8856826 18.1629301,27.0916759 C18.0776915,27.1556049 17.9853496,27.2195339 17.900111,27.2976693 C17.2892342,27.5249723 16.3231964,28.49101 15.8117647,28.6685905 C15.5915649,28.7396226 15.4423973,28.8603774 15.2293008,28.945616 C15.1298557,28.9740289 15.009101,28.9598224 14.9380688,29.045061 C14.7604883,29.2510544 15.2150943,29.2226415 15.2577137,29.2226415 C15.4495006,29.1231964 15.4921199,29.1516093 15.6625971,29.2510544 L15.854384,29.2368479 C15.9254162,29.1516093 16.017758,29.0592675 16.0958935,28.9740289 C16.209545,28.8603774 16.3374029,28.782242 16.4652608,28.6685905 C16.9980022,28.3915649 17.6017758,27.7806881 18.0279689,27.4965594 C18.3476138,27.290566 18.4186459,27.1769145 18.9584906,27.0277469 C19.0721421,26.9851276 19.2,26.963818 19.3278579,26.9140954 C19.5480577,26.8430633 19.6048835,26.7081021 19.5480577,26.608657 C19.5480577,26.5376249 19.5196448,26.4807991 19.5196448,26.4239734 Z" id="path3595_3_" fill="#FFC200"></path>
                <path d="M15.4992231,29.4144284 C15.3358491,29.3291898 15.0943396,29.4144284 14.9167592,29.3504994 C14.8173141,29.3220866 14.7391787,29.2368479 14.6539401,29.1871254 C14.6113208,29.1587125 14.5260821,29.1587125 14.490566,29.1160932 C14.4266371,29.0379578 14.4266371,28.8248613 14.3627081,28.7112098 C14.2987791,28.6259711 14.1993341,28.5691454 14.1567148,28.4697003 C14.0785794,28.327636 14.1140954,28.0008879 14.0785794,27.8304107 C14.0643729,27.745172 14.0146504,27.6528302 14.000444,27.5675916 C14.000444,27.5036626 14.0430633,27.4681465 14.0643729,27.4255272 C14.2064373,27.2621532 14.2277469,27.2195339 14.2419534,27.0206437 C14.2561598,26.9211987 14.3129856,26.8146504 14.2845727,26.7294118 C14.2561598,26.6157603 13.8796892,26.8288568 13.8654828,26.9211987 C13.8228635,27.0206437 13.8015538,27.0987791 13.7873474,27.2124306 C13.773141,27.354495 13.7447281,27.5036626 13.7234184,27.645727 C13.7234184,27.745172 13.7518313,27.8517203 13.7376249,27.9511654 C13.7376249,28.0221976 13.6950055,28.0790233 13.6950055,28.1571587 C13.6665927,28.6117647 13.808657,28.5265261 13.9862375,28.881687 C14.0501665,29.009545 14.0856826,29.1587125 14.1496115,29.2865705 C14.3556049,29.5280799 14.5047725,29.5280799 14.6823529,29.5493896 C14.7249723,29.5493896 14.781798,29.5493896 14.8244173,29.5778024 C14.8883463,29.6062153 14.8883463,29.6914539 14.9380688,29.7056604 C15.1582686,29.7482797 15.2932297,29.7198668 15.5063263,29.5280799 C15.5418424,29.4783574 15.527636,29.4286349 15.4992231,29.4144284 Z" id="path3597_3_" fill="#FFC200"></path>
                <path d="M12.8213097,28.0150943 C12.9349612,28.0008879 13.0486127,27.9866815 13.1764706,27.9511654 C13.318535,27.9085461 13.4037736,27.9227525 13.4392897,27.7593785 C13.4677026,27.6812431 13.481909,27.5960044 13.5032186,27.5249723 C13.5174251,27.4255272 13.5174251,27.3331853 13.5316315,27.2479467 C13.545838,27.1840178 13.6026637,27.1485017 13.6168701,27.0845727 C13.6168701,27.0703663 13.6168701,27.0419534 13.6026637,27.0206437 C13.6026637,27.0064373 13.5884573,26.9922309 13.5884573,26.9922309 C13.5600444,26.963818 13.5316315,26.9496115 13.5032186,26.9496115 C13.2617092,26.9780244 13.0201998,27.0277469 12.7786903,27.0774695 C12.7644839,27.0774695 12.7502775,27.0916759 12.7147614,27.1058824 C12.6508324,27.1698113 12.636626,27.2692564 12.6295228,27.3331853 C12.6153163,27.5107658 12.6011099,27.6670366 12.6011099,27.8304107 C12.5798002,28.0435072 12.6721421,28.0293008 12.8213097,28.0150943 Z" id="path3599_3_" fill="#FFC200"></path>
                <path d="M13.8228635,29.2084351 C13.7944506,29.1231964 13.7589345,29.0308546 13.7234184,28.9669256 C13.6807991,28.8958935 13.6097669,28.8390677 13.545838,28.7609323 C13.41798,28.5691454 13.3824639,28.4981132 13.3824639,28.2779134 C13.3824639,27.9582686 12.9988901,28.2495006 12.8426193,28.3063263 C12.6650388,28.3702553 12.5798002,28.4057714 12.6011099,28.6401776 C12.6011099,28.7538291 12.6153163,28.881687 12.6650388,29.0166482 C12.6792453,29.0592675 12.7502775,29.0592675 12.7644839,29.10899 C12.8071032,29.1800222 12.8284129,29.272364 12.863929,29.336293 C12.8923418,29.4144284 12.9207547,29.499667 12.9917869,29.5422863 C13.0557159,29.5849057 13.1977802,29.5422863 13.2688124,29.5280799 C13.4037736,29.4783574 13.8512764,29.3647059 13.8228635,29.2084351 Z" id="path3601_3_" fill="#FFC200"></path>
                <path d="M14.4053274,29.7056604 C14.3627081,29.7056604 14.1283019,29.5778024 14.1283019,29.5778024 C13.7447281,29.4925638 13.6168701,29.6417314 13.254606,29.8051054 C13.2119867,29.8193119 13.1551609,29.8335183 13.1267481,29.8903441 C13.1125416,29.9187569 13.1551609,29.954273 13.1693674,29.9684795 C13.2261931,30.0324084 13.2830189,30.0963374 13.3611543,30.1318535 C13.4463929,30.1602664 13.7518313,30.1957825 13.8583796,30.1957825 C13.9507214,30.181576 14.3556049,30.0963374 14.4408435,30.0679245 C14.6681465,29.9613762 14.7107658,29.7624861 14.4053274,29.7056604 Z" id="path3603_3_" fill="#FFC200"></path>
                <path d="M22.1052164,24.6836848 L21.9915649,24.5984462 L22.0057714,24.5132075 L25.0672586,22.7942286 L24.5558269,22.5314095 L22.8652608,23.5116537 L21.4801332,24.2716981 C21.3025527,24.3853496 21.2599334,24.626859 21.3664817,24.7689234 C21.6079911,25.0104329 21.8210877,25.1880133 21.8992231,25.5857936 L22.7871254,25.0459489 L25.1240844,23.7318535 L25.9409545,23.2985572 L25.3016648,22.9789123 L22.1052164,24.6836848 Z" id="path3605_3_" fill="#FFC200"></path>
                <polygon id="path3607_3_" fill="#FFC200" points="27.4255272 21.4943396 27.1200888 21.2031077 27.0064373 21.2173141 26.6228635 21.47303 27.0561598 21.7145394"></polygon>
                <path d="M27.6173141,21.6861265 C27.5533851,21.7145394 27.3900111,21.8281909 27.3260821,21.863707 L27.809101,22.1833518 L27.9866815,22.0554939 C27.809101,21.863707 27.745172,21.7287458 27.6173141,21.6861265 Z" id="path3609_3_" fill="#FFC200"></path>
                <path d="M28.2566038,21.9773585 L28.654384,21.7855716 C28.5407325,21.3522752 28.1855716,20.9118757 27.7380688,20.791121 L27.2834628,21.0255272 C27.7877913,21.2315205 28.0150943,21.5227525 28.2566038,21.9773585 Z" id="path3611_3_" fill="#FFC200"></path>
                <path d="M28.4981132,20.9260821 L28.6756937,20.8834628 C28.9527192,20.6916759 29.2155383,20.4785794 29.5138735,20.3152053 C29.7482797,20.1873474 30.0110988,20.1376249 30.2526082,20.0097669 C30.3378468,19.9671476 30.3804661,19.8677026 30.472808,19.81798 C30.5580466,19.7540511 30.6930078,19.7753607 30.7924528,19.718535 L31.0197558,19.5764706 L30.9345172,19.4344062 C30.8492786,19.3917869 30.7569367,19.2923418 30.6716981,19.3065483 C30.4657048,19.3491676 30.2881243,19.5125416 30.1176471,19.5977802 C30.0039956,19.6617092 29.8832408,19.6972253 29.7837958,19.7611543 C29.6417314,19.8392897 29.5067703,19.9245283 29.3789123,20.0026637 C29.2652608,20.0879023 29.1516093,20.1802442 29.0237514,20.2441731 L28.5691454,20.4643729 C28.5691454,20.4643729 28.0861265,20.6845727 28.0861265,20.6703663 L28.3134295,20.8124306 L28.4981132,20.9260821 Z" id="path3613_3_" fill="#FFC200"></path>
                <path d="M31.2896781,19.7398446 C31.2470588,19.7256382 31.2044395,19.7256382 31.1618202,19.7540511 C30.8279689,19.9742508 30.6006659,20.1518313 30.1673696,20.336515 C30.0253052,20.4146504 29.8903441,20.4785794 29.7482797,20.5709212 C29.6488346,20.6348502 29.5564928,20.7129856 29.4570477,20.7769145 C29.2368479,20.9047725 29.0024417,20.9687014 28.7964484,21.0823529 C28.7538291,21.0965594 28.6827969,21.1462819 28.6827969,21.1960044 C28.6827969,21.2670366 28.7609323,21.3096559 28.7964484,21.3735849 C28.8248613,21.4375139 28.8390677,21.4872364 28.881687,21.5511654 C28.8958935,21.5653718 28.9100999,21.5795782 28.945616,21.5795782 C28.9740289,21.5653718 28.9882353,21.5369589 29.0237514,21.5156493 C29.1871254,21.4304107 29.3433962,21.3238624 29.5209767,21.2244173 C29.72697,21.0965594 30.1957825,20.9189789 30.3733629,20.7556049 C30.4017758,20.727192 30.4017758,20.6774695 30.4372919,20.6561598 C30.6290788,20.5283019 30.9487236,20.3933407 31.1476138,20.3009989 C31.2470588,20.2583796 31.3394007,20.2370699 31.4246393,20.1873474 C31.4530522,20.173141 31.4885683,20.1447281 31.4672586,20.1021088 C31.4672586,20.0381798 31.4246393,19.9742508 31.3891232,19.9103219 C31.3465039,19.8677026 31.3322974,19.7895671 31.2896781,19.7398446 Z" id="path3615_3_" fill="#FFC200"></path>
                <path d="M31.1192009,19.1644839 C31.4530522,19.3420644 31.4246393,19.3846837 31.6022198,19.718535 C31.6306326,19.7611543 31.7016648,20.0736959 31.7798002,20.0523862 C31.8721421,20.0523862 31.9218646,19.9529412 32,19.9103219 C32.063929,19.881909 32.1136515,19.8463929 32.1775805,19.8250832 C32.2628191,19.7824639 32.2201998,19.7824639 32.1775805,19.7256382 C32.1491676,19.6830189 32.1136515,19.6403996 32.0994451,19.5977802 C31.9218646,19.2781354 31.8082131,19.0153163 31.4388457,18.8732519 C31.4104329,18.8590455 31.3607103,18.8874584 31.3394007,18.9016648 C31.2399556,18.9442841 31.1334073,18.972697 31.0481687,19.0295228 C31.0055494,19.0437292 30.9487236,19.0934517 30.9558269,19.1147614 C30.9842397,19.1644839 31.0552719,19.1431743 31.1192009,19.1644839 Z" id="path3617_3_" fill="#FFC200"></path>
                <path d="M34.6139845,17.9214206 L34.4861265,17.9214206 L34.209101,18.0990011 L33.7758047,18.3405105 L33.3069922,18.5749168 L32.8239734,18.8661487 L32.4048835,19.0721421 L32.2628191,19.1715871 L32.3267481,19.2852386 L32.4119867,19.491232 L32.5114317,19.590677 L32.5753607,19.6190899 L32.8665927,19.4415094 C32.8665927,19.4415094 33.2217536,19.2497225 33.2856826,19.1786903 C33.3567148,19.1076582 33.9107658,18.8235294 33.9107658,18.8235294 L34.7773585,18.4186459 L34.8057714,18.2765816 L34.727636,18.1345172 L34.6139845,17.9214206 Z" id="path3619_3_" fill="#FFC200"></path>
                <polygon id="path3621_4_" fill="#FFC200" points="31.9289678 18.8874584 32.1846837 19.0153163 32.5540511 18.7951165 33.136515 18.4612653 33.6195339 18.1416204 34.2304107 17.836182 34.3440622 17.736737 34.2304107 17.5591565 33.9533851 17.4810211 33.7473918 17.5804661 33.1791343 17.8716981 32.6108768 18.191343 31.8721421 18.5678135 31.6803552 18.681465 31.7229745 18.7596004"></polygon>
                <path d="M34.727636,17.5307436 L34.9478357,17.8645949 L35.1751387,18.1061043 C35.1893452,18.0918979 35.2603774,18.1771365 35.2603774,18.1771365 L35.4876804,17.999556 L35.5871254,17.8716981 L35.5231964,17.6941176 L35.2035516,17.3744728 L34.8839068,17.1116537 L34.7063263,17.0335183 L34.2375139,17.2963374 L34.209101,17.3744728 L34.436404,17.445505 L34.727636,17.5307436 Z" id="path3623_3_" fill="#FFC200"></path>
                <polygon id="path3625_4_" fill="#FFC200" points="35.4805771 17.1613762 35.7149834 17.1613762 36.0772475 16.8985572 36.9651498 16.4297447 37.490788 16.1527192 37.6683685 15.9751387 37.6257492 15.9112098 37.5476138 15.8401776 37.3842397 15.6768036 37.2563818 15.6625971 37.0930078 15.790455 35.2745838 16.7564928 35.0188679 16.9198668 34.990455 16.9980022 35.1538291 17.0690344"></polygon>
                <polygon id="path3625_2_" fill="#FFC200" points="36.0630411 17.5875694 36.2761376 17.5875694 36.6099889 17.3460599 37.4339623 16.9056604 37.9169811 16.6428413 38.0803552 16.4794673 38.0448391 16.4226415 37.9738069 16.3516093 37.8317425 16.1953385 37.7109878 16.1811321 37.5689234 16.3018868 35.8925638 17.1968923 35.6652608 17.3531632 35.6439512 17.4241953 35.7860155 17.4952275"></polygon>
                <path d="M40.4386238,14.8315205 C40.3249723,14.8741398 39.0250832,15.5418424 39.0250832,15.5915649 C39.1529412,15.7052164 39.3021088,15.8259711 39.3021088,15.9609323 C39.7069922,15.6981132 40.1331853,15.527636 40.4954495,15.300333 C40.5806881,15.2150943 40.7014428,15.1582686 40.7582686,15.0659267 C40.9571587,14.945172 40.609101,14.7462819 40.4386238,14.8315205 Z" id="path3645_3_" fill="#FFC200"></path>
                <path d="M37.9098779,15.8472808 L38.1158713,16.0887902 L38.3076582,16.30899 C38.3076582,16.2947836 38.3857936,16.372919 38.3857936,16.372919 L38.5136515,16.3018868 L38.7338513,16.2024417 L38.8617092,16.0887902 L38.8190899,15.9751387 C38.8190899,15.9751387 38.627303,15.7478357 38.5562708,15.7123196 C38.4852386,15.6697003 38.236626,15.4210877 38.236626,15.4210877 C38.108768,15.2435072 37.5760266,15.3926748 37.5618202,15.5489456 C37.5476138,15.5773585 37.5476138,15.6128746 37.5476138,15.627081 L37.7109878,15.7123196 L37.9098779,15.8472808 Z" id="path3647_3_" fill="#FFC200"></path>
                <path d="M33.1152053,25.7420644 C33.2288568,25.6781354 33.4206437,25.7136515 33.5982242,25.7562708 L38.1513873,27.2053274 L38.108768,26.7862375 C38.108768,26.7862375 38.0448391,26.5802442 37.9951165,26.5660377 C36.2903441,25.9977802 34.8057714,25.6994451 33.299889,25.4082131 C33.0796892,25.3798002 32.9660377,25.145394 32.7671476,25.0530522 C32.4901221,24.8896781 31.7016648,24.7334073 31.4317425,25.2164262 L31.1973363,25.6710322 C31.1831299,25.7136515 31.1831299,25.7846837 31.2399556,25.8130966 L31.8792453,26.0048835 C31.9928968,26.0332963 32.0710322,25.990677 32.0852386,25.9054384 C32.1136515,25.763374 32.1136515,25.6284129 32.1846837,25.5005549 C32.2415094,25.4153163 32.3764706,25.3371809 32.4759156,25.3371809 C32.5895671,25.3229745 32.7671476,25.3513873 32.8097669,25.4508324 C32.8736959,25.5928968 32.7955605,25.7704772 32.7174251,25.9196448 C32.6605993,26.0617092 32.5114317,26.1611543 32.4261931,26.3103219 C32.3409545,26.4594895 32.2983352,26.6157603 32.2201998,26.7791343 C32.1775805,26.8643729 32.0426193,26.9851276 32.0923418,27.0703663 L32.3835738,27.581798 L32.6463929,27.4042175 C32.5895671,27.2621532 32.4403996,27.0987791 32.4688124,26.9354051 C32.5114317,26.7436182 32.6890122,26.6299667 32.8026637,26.4665927 C32.8807991,26.3813541 32.8807991,26.3032186 32.9305216,26.2037736 C32.9944506,26.0688124 32.973141,25.7562708 33.1152053,25.7420644 Z" id="path3649_3_" fill="#FFC200"></path>
                <path d="M37.3842397,28.8319645 C35.5800222,27.8162042 34.4079911,26.9780244 33.3283019,26.4665927 C33.299889,26.4381798 33.299889,26.3671476 33.3425083,26.3387347 C33.3709212,26.3245283 33.4277469,26.3671476 33.4703663,26.3813541 C33.5627081,26.4097669 33.6337403,26.445283 33.6976693,26.4807991 C35.0685905,27.1698113 36.2903441,28.0577137 37.6683685,28.6970033 C37.6967814,28.7396226 37.7465039,28.7751387 37.7962264,28.7751387 C38.1655938,28.5123196 38.3786903,27.517869 38.0022198,27.4397336 L37.327414,27.2621532 C37.327414,27.2621532 36.6384018,26.9567148 36.5673696,26.9425083 C35.8641509,26.7009989 35.0970033,26.3174251 34.3511654,26.21798 C34.0883463,26.1540511 33.8539401,26.0759156 33.6408435,25.9764706 C33.4490566,25.8983352 33.3211987,25.7846837 33.1436182,25.8770255 C33.0654828,25.9196448 33.1294118,26.0403996 33.1294118,26.118535 C33.1294118,26.1966704 33.1436182,26.2605993 33.1294118,26.345838 C33.1152053,26.4097669 33.0867925,26.4594895 33.0512764,26.509212 C32.9873474,26.608657 33.0512764,26.7436182 33.2714761,26.8146504 C34.8199778,27.7025527 35.672364,28.4057714 36.7591565,29.1302997 C36.9651498,29.1942286 37.0788013,29.2581576 37.5902331,28.9385128 C37.5334073,28.8603774 37.490788,28.8603774 37.3842397,28.8319645 Z" id="path3651_3_" fill="#FFC200"></path>
                <path d="M38.7977802,26.8217536 C38.7693674,26.736515 38.3928968,26.5163152 38.3644839,26.6299667 C38.4284129,27.3900111 38.7338513,29.0237514 37.1569367,29.3291898 C37.1285239,29.3433962 37.1143174,29.400222 37.1285239,29.4428413 C37.3487236,29.6346282 37.490788,29.6630411 37.6967814,29.6204218 C38.8759156,29.172919 39.1529412,27.9156493 38.7977802,26.8217536 Z" id="path3653_3_" fill="#FFC200"></path>
                <path d="M39.9556049,27.0348502 C39.9413984,27.0206437 39.9129856,27.0206437 39.8916759,27.0064373 C39.6643729,26.9425083 39.408657,26.9069922 39.1671476,26.8785794 C39.1387347,26.8785794 39.1103219,26.8927858 39.0961154,26.9211987 C39.081909,26.9211987 39.0677026,26.9354051 39.0677026,26.9496115 C39.0677026,26.963818 39.0677026,26.9922309 39.0677026,27.0135405 C39.081909,27.0774695 39.1316315,27.1129856 39.145838,27.1769145 C39.1742508,27.2621532 39.1600444,27.354495 39.1742508,27.4539401 C39.1884573,27.5249723 39.2026637,27.6173141 39.2381798,27.6812431 C39.2665927,27.8446171 39.3660377,27.8233074 39.5152053,27.87303 C39.6146504,27.9014428 39.7354051,27.9156493 39.8490566,27.9369589 C39.991121,27.9511654 40.090566,27.9653718 40.090566,27.7735849 C40.090566,27.6102109 40.0621532,27.4539401 40.0479467,27.290566 C40.0266371,27.191121 40.0266371,27.0916759 39.9556049,27.0348502 Z" id="path3655_3_" fill="#FFC200"></path>
                <path d="M39.8277469,28.2210877 C39.6501665,28.1571587 39.2665927,27.8659267 39.2665927,28.1926748 C39.2665927,28.4128746 39.2523862,28.4839068 39.1032186,28.6899001 C39.0605993,28.7538291 38.9895671,28.8035516 38.9398446,28.881687 C38.8759156,28.9527192 38.854606,29.045061 38.8403996,29.1231964 C38.7977802,29.2865705 39.2594895,29.400222 39.4015538,29.4428413 C39.4796892,29.4570477 39.6217536,29.5067703 39.6785794,29.4570477 C39.7425083,29.4144284 39.763818,29.3291898 39.8064373,29.2510544 C39.8348502,29.1800222 39.8490566,29.0876804 39.8916759,29.0237514 C39.9200888,28.9811321 39.9840178,28.9811321 39.991121,28.9385128 C40.0337403,28.8106548 40.0550499,28.6756937 40.0692564,28.5620422 C40.0692564,28.3205327 39.9769145,28.2708102 39.8277469,28.2210877 Z" id="path3657_3_" fill="#FFC200"></path>
                <path d="M39.3944506,29.7198668 C39.0250832,29.5422863 38.8972253,29.400222 38.5207547,29.4854606 C38.5207547,29.4854606 38.2863485,29.6133185 38.2437292,29.6133185 C37.9382908,29.6772475 38.0022198,29.8761376 38.2295228,29.9684795 C38.3076582,29.9968923 38.7125416,30.082131 38.7977802,30.0963374 C38.8972253,30.0963374 39.2168701,30.0679245 39.2950055,30.0324084 C39.373141,29.9968923 39.4228635,29.9471698 39.4867925,29.8690344 C39.5009989,29.854828 39.5436182,29.8264151 39.5294118,29.790899 C39.5009989,29.7482797 39.4441731,29.7340733 39.3944506,29.7198668 Z" id="path3659_3_" fill="#FFC200"></path>
                <path d="M31.4104329,24.8257492 C31.5098779,24.6836848 31.3465039,24.3924528 31.1760266,24.2716981 L25.5289678,21.1675916 L25.0459489,21.5369589 L30.6645949,24.527414 L30.6788013,24.6126526 L30.5509434,24.6978912 L24.8967814,21.6790233 L24.5629301,22.1123196 L29.8690344,25.0459489 L30.8492786,25.6426193 C30.9416204,25.2448391 31.154717,25.0672586 31.4104329,24.8257492 Z" id="path3661_3_" fill="#FFC200"></path>
                <path d="M24.0017758,21.7855716 L24.4066593,21.9773585 C24.6339623,21.5227525 24.8612653,21.2386238 25.372697,21.0255272 L24.918091,20.791121 C24.4776915,20.9118757 24.136737,21.3522752 24.0017758,21.7855716 Z" id="path3663_3_" fill="#FFC200"></path>
                <path d="M21.5085461,19.5622642 C22.2188679,19.9529412 23.4761376,20.5709212 24.1651498,20.9331853 L24.3285239,20.8195339 L24.6055494,20.6561598 C24.1509434,20.43596 22.154939,19.3562708 21.9631521,19.2568257 C21.8139845,19.2213097 21.5440622,19.3704772 21.5085461,19.5622642 Z" id="path3665_3_" fill="#FFC200"></path>
                <path d="M21.1960044,20.1944506 C21.5866815,20.4146504 23.3553829,21.4019978 23.7176471,21.5795782 C23.7318535,21.5795782 23.7460599,21.5653718 23.7602664,21.5511654 C23.8028857,21.4872364 23.8241953,21.4375139 23.845505,21.3735849 C23.8881243,21.3096559 23.9662597,21.2741398 23.9662597,21.1960044 C23.9662597,21.0681465 21.6932297,19.8677026 21.4446171,19.7114317 C21.1249723,19.81798 21.1746948,20.1802442 21.1960044,20.1944506 Z" id="path3667_3_" fill="#FFC200"></path>
                <path d="M20.3720311,19.8037736 C20.6774695,19.945838 20.791121,20.0665927 20.8834628,20.0665927 C21.0113208,19.4983352 21.4446171,19.1928968 21.700333,19.1005549 C21.7145394,19.0721421 21.6577137,19.0224195 21.6150943,19.0153163 C21.572475,18.9869034 21.2812431,18.8377358 21.2244173,18.8519423 C20.8195339,18.9869034 20.499889,19.5125416 20.3720311,19.8037736 Z" id="path3669_3_" fill="#FFC200"></path>
                <path d="M18.1203108,17.8788013 C17.900111,17.8930078 17.8006659,18.1842397 17.8432852,18.3760266 C18.518091,18.6956715 19.1644839,19.0721421 19.8108768,19.4557159 L20.1447281,19.6759156 C20.1873474,19.4841287 20.2583796,19.3420644 20.4075472,19.1786903 L20.2654828,19.0792453 C19.5693674,18.7524972 18.7809101,18.290788 18.1203108,17.8788013 Z" id="path3671_3_" fill="#FFC200"></path>
                <path d="M18.3902331,17.8077691 C19.1005549,18.1629301 19.8605993,18.6246393 20.5496115,19.0153163 C20.6348502,18.8874584 20.791121,18.7809101 20.9829079,18.6956715 L20.791121,18.58202 C20.0950055,18.226859 19.3207547,17.7935627 18.6175361,17.4241953 C18.4044395,17.4526082 18.1203108,17.5875694 18.3902331,17.8077691 Z" id="path3673_3_" fill="#FFC200"></path>
                <path d="M17.054828,17.9356271 L17.154273,18.0066593 L17.5378468,18.1842397 C17.6799112,17.6017758 18.1345172,17.3318535 18.3973363,17.2963374 L17.9143174,17.054828 C17.5520533,17.1613762 17.1471698,17.6159822 17.054828,17.9356271 Z" id="path3675_3_" fill="#FFC200"></path>
                <path d="M17.1897891,17.1613762 L17.4952275,17.0761376 L17.6586016,17.0051054 L17.6301887,16.92697 L17.3744728,16.763596 L15.5560488,15.7975583 L15.3358491,15.6839068 C15.1440622,15.7833518 15.0446171,15.8614872 15.0019978,16.0674806 C15.5418424,16.3160932 16.6357381,16.8417314 17.1897891,17.1613762 Z" id="path3677_3_" fill="#FFC200"></path>
                <path d="M13.645283,15.5915649 C13.645283,15.5489456 12.2885683,14.8528302 12.1607103,14.8031077 C11.954717,14.7036626 11.7345172,15.0801332 11.8978912,15.1582686 L12.1607103,15.300333 C12.5229745,15.5205327 12.9491676,15.69101 13.3682575,15.9609323 C13.3540511,15.8259711 13.5032186,15.7052164 13.645283,15.5915649 Z" id="path3691_3_" fill="#FFC200"></path>
                <path d="M15.1085461,15.5418424 C15.0943396,15.4708102 14.6113208,15.2648169 14.5758047,15.2648169 C14.2845727,15.3074362 13.9649279,15.6483907 13.8015538,15.9041065 L13.7234184,16.0958935 L14.3058824,16.4297447 C14.4195339,16.0674806 14.8528302,15.6768036 15.1085461,15.5418424 Z" id="path3693_3_" fill="#FFC200"></path>
                <path d="M19.9742508,25.7278579 C19.9742508,25.827303 20.0523862,25.9196448 20.1518313,25.9196448 C20.2512764,25.9196448 20.3436182,25.8344062 20.3436182,25.7278579 C20.3436182,25.6284129 20.2512764,25.536071 20.1518313,25.536071 C20.0523862,25.536071 19.9742508,25.6213097 19.9742508,25.7278579 Z" id="path3695_3_" fill="#FFC200"></path>
                <path d="M32.6037736,25.7278579 C32.6037736,25.6284129 32.5327414,25.536071 32.4261931,25.536071 C32.3267481,25.536071 32.2344062,25.6213097 32.2344062,25.7278579 C32.2344062,25.827303 32.3196448,25.9196448 32.4261931,25.9196448 C32.5327414,25.9196448 32.6037736,25.827303 32.6037736,25.7278579 Z" id="path3697_3_" fill="#FFC200"></path>
                <path d="M40.8861265,41.7385128 C40.4528302,41.354939 39.9342952,41.2057714 39.408657,41.2057714 L39.3944506,41.2057714 C39.3802442,41.2057714 39.3802442,41.2057714 39.3660377,41.2057714 L26.9709212,41.2057714 L29.0308546,38.4852386 L29.9826859,38.3715871 L30.6219756,37.5192009 L29.7624861,37.5192009 L29.8619312,37.3771365 L30.76404,37.3132075 L31.2967814,36.6099889 L30.5580466,36.4466149 L30.6716981,36.2832408 L31.4743618,36.354273 L32.1491676,35.4663707 L30.9416204,35.4663707 L30.5580466,34.2446171 L29.8832408,35.1325194 L30.0892342,35.8286349 L30.0110988,35.9280799 L29.7056604,35.3598224 L29.1800222,36.0701443 L29.2652608,36.9012209 L29.1658158,37.0432852 L29.0237514,36.254828 L28.3986681,37.1072142 L28.5265261,38.1016648 L26.5447281,40.7227525 L26.5447281,38.5775805 L27.2337403,37.8885683 L27.2337403,36.808879 L26.5447281,37.3416204 L26.5447281,37.16404 L27.2337403,36.5531632 L27.2337403,35.6652608 L26.5447281,36.0204218 L26.5447281,35.800222 L27.2337403,35.3811321 L27.2337403,34.2659267 L26.2677026,35.0046615 L25.2661487,34.2659267 L25.2661487,35.3882353 L25.8344062,35.8073252 L25.8344062,35.9493896 L25.2661487,35.672364 L25.2661487,36.5602664 L25.8344062,37.1711432 L25.8344062,37.3487236 L25.2661487,36.8159822 L25.2661487,37.8956715 L25.9551609,38.5917869 L25.9551609,40.7795782 L23.9307436,38.0945616 L24.0586016,37.100111 L23.4193119,36.2477248 L23.2772475,37.036182 L23.1778024,36.8941176 L23.2772475,36.0630411 L22.7374029,35.3527192 L22.4461709,35.9209767 L22.3609323,35.8215316 L22.5669256,35.1254162 L21.8992231,34.2375139 L21.5156493,35.4592675 L20.3081021,35.4592675 L20.9829079,36.3471698 L21.7855716,36.2761376 L21.9134295,36.4395117 L21.1746948,36.6028857 L21.6932297,37.3061043 L22.5953385,37.3700333 L22.6947836,37.5120977 L21.8352941,37.5120977 L22.4745838,38.3644839 L23.4406215,38.4781354 L25.5005549,41.1986681 L13.2688124,41.1986681 C12.736071,41.1844617 12.1891232,41.3407325 11.7416204,41.7314095 C9.74561598,43.7132075 12.6295228,46.1922309 13.8157603,44.1394007 C14.1354051,43.2514983 13.2759156,42.8253052 12.4803552,43.0881243 C12.4022198,42.3138735 13.6168701,42.1078801 14.1851276,42.5056604 L15.3358491,43.6279689 L16.4013319,44.6295228 C17.8503885,45.7660377 19.0082131,46.1922309 20.1518313,46.0146504 C21.117869,45.872586 22.0768036,45.3043285 23.1920089,44.3951165 C23.6892342,43.9405105 24.1225305,43.5924528 24.5629301,43.3793563 L20.173141,49.2110988 L20.1589345,49.1826859 L19.7753607,48.0248613 L19.4699223,47.982242 C19.4415094,49.4312986 19.0721421,50.6530522 18.4186459,51.8890122 L18.5607103,52.0026637 C19.0721421,51.5054384 19.590677,51.1289678 20.1518313,50.809323 C20.7200888,50.4754717 21.3309656,50.1984462 22.0057714,49.9498335 L21.8921199,49.672808 L20.6561598,49.6017758 L25.5644839,43.0810211 C25.6923418,43.0668147 25.827303,43.0668147 25.9693674,43.0668147 L25.9693674,52.208657 L24.9536071,51.5125416 L24.690788,51.654606 C25.5218646,52.8337403 25.9764706,54.0341842 26.1753607,55.4193119 L26.3529412,55.4193119 C26.5802442,53.9915649 27.1129856,52.8621532 27.8517203,51.654606 L27.6102109,51.5125416 L26.5802442,52.2228635 L26.5802442,43.0952275 C26.6938957,43.0810211 26.8075472,43.0810211 26.9354051,43.0810211 L31.8650388,49.6159822 L30.6077691,49.6870144 L30.5083241,49.96404 C31.2683685,50.2552719 31.9644839,50.5749168 32.61798,50.9798002 C33.072586,51.2710322 33.5058824,51.6048835 33.9320755,52.0097669 L34.0741398,51.8961154 C33.4135405,50.6601554 33.072586,49.4312986 33.0228635,47.9893452 L32.7316315,48.0319645 L32.61798,48.3658158 L32.3409545,49.2039956 L27.8517203,43.2514983 C28.3773585,43.4716981 28.881687,43.8339623 29.4783574,44.3880133 C30.6290788,45.3398446 31.6022198,45.9009989 32.61798,46.0146504 C33.7260821,46.1425083 34.8625971,45.7234184 36.2619312,44.6153163 L37.327414,43.6137625 L38.5349612,42.5198668 C39.0605993,42.0652608 40.2539401,42.1647059 40.1900111,43.0739179 C39.3234184,42.7684795 38.4355161,43.3935627 38.8332963,44.2104329 C39.9769145,46.2703663 42.8892342,43.7203108 40.8861265,41.7385128 Z M23.7531632,42.2570477 L21.4375139,43.3225305 C20.954495,43.5498335 20.5354051,43.7132075 20.1376249,43.8197558 C18.7098779,44.1891232 17.736737,43.7203108 16.4368479,42.7258602 C15.8685905,42.3067703 15.3145394,41.8734739 14.7320755,41.5680355 L25.5502775,41.5680355 C24.9607103,41.6887902 24.36404,41.9374029 23.7531632,42.2570477 Z M36.190899,42.7258602 C34.9194229,43.7061043 33.9533851,44.1749168 32.5895671,43.8481687 C32.1704772,43.7487236 31.7158713,43.5711432 31.1902331,43.3225305 L29.045061,42.2570477 C28.4341842,41.9231964 27.8517203,41.6887902 27.2763596,41.5680355 L37.8956715,41.5680355 C37.3132075,41.8805771 36.7591565,42.3067703 36.190899,42.7258602 Z" id="path3699_2_" fill="#1F221D" fill-rule="nonzero"></path>
                <path d="M12.7715871,42.0794673 C11.2443951,42.4630411 11.3225305,44.5300777 12.8,44.4164262 C13.936515,44.2530522 13.0415094,43.0170921 12.7147614,43.9831299 C11.4716981,43.9831299 12.0612653,42.3920089 12.7715871,42.0794673 Z" id="path3701_2_" fill="#BBC1C1"></path>
                <path d="M39.7780244,42.0794673 C41.3052164,42.4630411 41.227081,44.5300777 39.7496115,44.4164262 C38.6130966,44.2530522 39.4299667,43.0810211 39.8490566,43.9831299 C41.0708102,43.9831299 40.4883463,42.3920089 39.7780244,42.0794673 Z" id="path3703_2_" fill="#BBC1C1"></path>
                <path d="M22.7160932,44.2530522 C20.8834628,45.7660377 19.0437292,46.1211987 16.9411765,44.572697 C19.5196448,45.5884573 20.5851276,45.190677 22.7160932,44.2530522 Z" id="path3705_2_" fill="#BBC1C1"></path>
                <path d="M29.9329634,44.2530522 C31.7655938,45.7660377 33.6053274,46.1211987 35.7078801,44.572697 C33.1294118,45.5884573 32.0710322,45.190677 29.9329634,44.2530522 Z" id="path3707_2_" fill="#BBC1C1"></path>
                <path d="M18.8377358,51.3704772 C19.2284129,50.518091 19.5622642,49.6159822 19.5622642,48.6854606 C19.6617092,49.1400666 19.7256382,49.6159822 20.1021088,49.9569367 C19.6688124,50.3192009 19.2923418,50.8164262 18.8377358,51.3704772 Z" id="path3709_2_" fill="#BBC1C1"></path>
                <path d="M26.21798,54.7587125 C26.1043285,53.8566038 25.8344062,53.0397336 25.3158713,52.2015538 L26.1824639,52.9615982 L26.21798,54.7587125 Z" id="path3711_2_" fill="#BBC1C1"></path>
                <path d="M30.927414,49.9143174 C32.6321865,49.8859046 32.7174251,49.9782464 33.5485017,51.4770255 C32.8239734,50.7596004 31.8792453,50.2552719 30.927414,49.9143174 Z" id="path3713_2_" fill="#BBC1C1"></path>
                <path d="M23.3482797,56.854162 C22.9433962,56.591343 22.4603774,56.399556 21.9205327,56.2290788 C21.8921199,56.2148724 21.8779134,56.2006659 21.8423973,56.2006659 C21.8708102,56.2148724 21.8850166,56.2290788 21.9205327,56.2645949 C22.7374029,56.8470588 23.1280799,57.4224195 23.3482797,58.0332963 C23.4761376,58.3884573 23.5400666,58.7578246 23.6039956,59.1556049 L24.4918979,59.0703663 L24.7120977,59.0419534 C24.6481687,58.7507214 24.5842397,58.4879023 24.4918979,58.2534961 C24.2219756,57.6 23.845505,57.1738069 23.3482797,56.854162 Z" id="path3715_4_" fill="#FFC200"></path>
                <path d="M23.3482797,7.89167592 C23.4903441,7.82774695 23.6537181,7.79223085 23.8170921,7.74961154 C23.7744728,6.86170921 23.6750277,5.82463929 23.3482797,4.77336293 C23.1209767,4.03462819 22.7800222,3.2745838 22.2970033,2.53584906 C22.1691454,2.57846837 22.0412875,2.62108768 21.9134295,2.66370699 C21.3167592,2.86970033 20.7342952,3.11831299 20.1589345,3.40244173 C20.1163152,3.41664817 20.0736959,3.44506104 20.0310766,3.48057714 C20.0736959,3.52319645 20.1163152,3.56581576 20.1589345,3.60843507 C20.7982242,4.29744728 21.4162042,5.18534961 21.9134295,6.0590455 C22.318313,6.76936737 22.6379578,7.47258602 22.8652608,8.05504994 C23.0215316,8.00532741 23.1849057,7.94850166 23.3482797,7.89167592 Z" id="path3717_4_" fill="#FFC200"></path>
                <path d="M12.963374,10.1647059 C13.0628191,10.2286349 13.1835738,10.2783574 13.2830189,10.3422863 C14.4195339,10.9531632 15.8614872,11.1449501 17.2750277,10.8963374 C18.1487236,10.754273 19.0082131,10.427525 19.7966704,9.93029967 C19.9245283,9.85926748 20.0381798,9.76692564 20.1589345,9.68879023 C20.2015538,9.66037736 20.2441731,9.62486127 20.3009989,9.58934517 L20.2583796,9.57513873 C20.2299667,9.48990011 20.1944506,9.39755827 20.1589345,9.31231964 C20.0594895,9.03529412 19.9529412,8.72985572 19.7966704,8.381798 C19.3988901,7.47968923 18.7311876,6.37158713 17.3318535,5.3345172 L17.3318535,5.34872364 C17.3176471,5.36293008 17.2892342,5.37713651 17.2679245,5.39134295 C16.8346282,5.7891232 16.1314095,6.56337403 15.7833518,6.98246393 C16.30899,7.22397336 16.7991121,7.50810211 17.2679245,7.82064373 C17.9427303,8.28945616 18.5394007,8.87192009 19.0224195,9.6390677 C18.5109878,9.97291898 17.900111,10.1789123 17.2679245,10.2499445 C16.2379578,10.363596 15.1582686,10.0865705 14.3698113,9.41886792 C14.0501665,9.1418424 14.0927858,8.69433962 14.4479467,8.46703663 C13.9649279,8.46703663 13.5742508,8.50965594 13.2759156,8.59489456 C12.2743618,8.89322974 12.2601554,9.62486127 12.963374,10.1647059 Z" id="path3719_4_" fill="#FFC200"></path>
                <path d="M4.27613762,28.9029967 C4.83018868,28.4839068 5.22796892,27.7806881 5.41265261,26.8927858 L5.42685905,26.8927858 C5.71809101,25.5786903 5.88146504,24.3853496 5.95249723,23.2062153 C6.05194229,21.8495006 6.02352941,20.5354051 5.95249723,19.136071 C5.73229745,16.3658158 5.48368479,15.300333 4.50344062,13.773141 C4.43240844,13.6736959 4.36137625,13.5671476 4.27613762,13.4961154 C3.15382908,12.4164262 0.52563818,12.8994451 0.36936737,14.8528302 C0.326748058,16.2805771 1.27147614,17.2892342 2.64239734,17.0264151 C3.9991121,16.8346282 4.14117647,15.2221976 3.21065483,14.5331853 C2.53584906,14.0217536 1.16492786,14.5615982 1.87524972,15.463707 C2.24461709,15.8970033 2.72763596,15.527636 2.86970033,15.399778 L2.95493896,15.6768036 C2.59977802,16.0674806 1.95338513,16.1882353 1.47746948,15.5347392 C0.717425083,14.2206437 2.79866815,13.1267481 3.89256382,14.6610433 C4.03462819,14.8528302 4.15538291,15.0446171 4.27613762,15.2435072 C5.09300777,16.6925638 5.32741398,18.4257492 5.30610433,20.6490566 L5.19245283,20.6490566 C5.09300777,20.0523862 5.14983352,19.427303 4.85860155,18.6885683 C4.71653718,18.3334073 4.50344062,18.1558269 4.27613762,18.063485 C3.63684795,17.836182 2.82708102,18.4683685 2.90521643,19.1289678 C3.47347392,19.0579356 3.93518313,19.4344062 4.27613762,20.0807991 C5.1427303,21.6861265 5.27058824,24.9109878 4.63129856,26.8217536 C4.54605993,27.1129856 4.42530522,27.3758047 4.27613762,27.581798 C4.05593785,27.9156493 3.79311876,28.1500555 3.50188679,28.2566038 C2.84128746,28.3844617 2.36537181,28.2850166 2.05283019,28.0293008 C1.37802442,27.4610433 1.58401776,26.4665927 2.19489456,26.1469478 C2.66370699,25.9125416 3.5445061,26.1611543 3.45216426,26.7578246 L3.32430633,26.9496115 C3.00466149,26.1327414 2.3227525,26.3671476 2.11675916,26.8501665 C1.93917869,27.3047725 2.10255272,27.9866815 3.2390677,27.8517203 C4.33296337,27.6102109 4.25482797,26.2250832 3.80732519,25.827303 C1.47036626,23.8028857 -1.10099889,28.0008879 2.30854606,29.2865705 C3.10410655,29.4428413 3.75760266,29.3007769 4.27613762,28.9029967 Z" id="path3721_4_" fill="#FFC200"></path>
                <path d="M20.1660377,4.15538291 C20.0523862,4.01331853 19.9387347,3.86415094 19.8037736,3.73629301 C19.7753607,3.70788013 19.7398446,3.67236404 19.718535,3.65105438 C19.6759156,3.67946726 19.6403996,3.6936737 19.6048835,3.72208657 C18.9158713,4.1127636 18.2694784,4.57447281 17.6514983,5.07880133 C17.6372919,5.07880133 17.6230855,5.09300777 17.608879,5.10721421 C18.5394007,5.74650388 19.2355161,6.42841287 19.8108768,7.07480577 C19.9387347,7.2381798 20.0523862,7.38024417 20.173141,7.52941176 C20.5922309,8.04084351 20.9331853,8.53806881 21.2031077,8.94295228 C21.4375139,8.8008879 21.6861265,8.65172031 21.9205327,8.52386238 C21.9489456,8.50965594 21.9773585,8.4954495 22.0057714,8.48124306 C21.9773585,8.381798 21.9418424,8.26104329 21.9205327,8.12608213 C21.6435072,6.98246393 21.0965594,5.38423973 20.1660377,4.15538291 Z" id="path3723_4_" fill="#FFC200"></path>
                <path d="M9.56803552,9.9445061 C9.85926748,10.2215316 10.1647059,10.4772475 10.4843507,10.7329634 C11.3509434,11.3935627 12.2743618,11.8552719 13.2830189,12.1465039 C13.9720311,12.3382908 14.6823529,12.4377358 15.4423973,12.4803552 C16.0532741,12.5229745 16.6783574,12.4945616 17.2750277,12.4022198 C17.5165372,12.3667037 17.7722531,12.3169811 18.0137625,12.2601554 C19.718535,11.9192009 21.4588235,11.4077691 23.1778024,12.6153163 L23.1493896,12.4235294 C22.8155383,11.5498335 21.8281909,11.2017758 20.9900111,11.3012209 C20.6277469,11.3438402 19.9245283,11.6066593 19.5693674,11.7345172 C19.6475028,11.7061043 19.7256382,11.663485 19.7966704,11.6350721 C19.9103219,11.5924528 20.0381798,11.5356271 20.1589345,11.4574917 C20.2370699,11.4290788 20.3009989,11.3793563 20.3933407,11.3438402 C21.018424,11.0099889 21.4588235,10.7471698 21.9063263,10.427525 C22.0839068,10.3138735 22.2614872,10.200222 22.4390677,10.0439512 C22.4390677,10.0439512 22.4674806,10.0297447 22.5100999,10.0013319 C22.7445061,9.79533851 23.0499445,9.56803552 23.32697,9.48990011 C23.5329634,9.4472808 23.7247503,9.47569367 23.8881243,9.66748058 L23.7886792,9.7527192 C23.6750277,9.61065483 23.5116537,9.58934517 23.3340733,9.6390677 C23.1280799,9.70299667 22.9007769,9.85926748 22.70899,10.0226415 C22.6308546,10.2570477 22.7516093,10.5766926 23.0144284,10.7471698 C23.1138735,10.7897891 23.2204218,10.8110988 23.3340733,10.8110988 C23.8028857,10.7826859 24.3143174,10.3564928 24.4705882,9.83085461 C24.5487236,9.62486127 24.5487236,9.39755827 24.4705882,9.17025527 L24.4705882,9.15604883 C24.2432852,8.64461709 23.8597114,8.4173141 23.3340733,8.4954495 C23.0570477,8.55937847 22.7516093,8.67302997 22.4035516,8.88612653 C22.2259711,8.99977802 22.0697003,9.1063263 21.9063263,9.2199778 C21.3238624,9.61775805 20.7342952,9.99422863 20.1518313,10.3138735 C20.0381798,10.3849057 19.9103219,10.4417314 19.7895671,10.5198668 C19.5338513,10.6335183 19.2923418,10.7471698 19.0508324,10.8537181 C18.454162,11.0881243 17.8574917,11.2586016 17.2750277,11.3651498 C15.9041065,11.6066593 14.5758047,11.4788013 13.2830189,10.8537181 C12.3169811,10.3991121 11.3864595,9.6745838 10.4843507,8.63751387 C10.4559378,8.609101 10.427525,8.57358491 10.3991121,8.55227525 C10.1220866,8.23263041 9.73851276,7.87746948 9.87347392,7.37314095 C9.91609323,7.18135405 10.0510544,7.05349612 10.2073252,6.96825749 C10.2854606,6.92563818 10.3849057,6.89012209 10.4843507,6.88301887 C10.5624861,6.86881243 10.6264151,6.86881243 10.7187569,6.88301887 C10.9957825,6.92563818 11.272808,7.10321865 11.3580466,7.45127636 L11.1520533,7.49389567 C11.0810211,7.25238624 10.8892342,7.1245283 10.6832408,7.10321865 C10.6051054,7.08901221 10.5411765,7.08901221 10.4772475,7.10321865 C10.3991121,7.11742508 10.3493896,7.13163152 10.2854606,7.16714761 C10.1860155,7.23107658 10.0936737,7.30921199 10.0652608,7.4299667 C10.0226415,7.60754717 10.0794673,7.83485017 10.3067703,8.14028857 C10.3067703,8.14028857 10.3067703,8.14028857 10.3067703,8.12608213 C10.3493896,8.1900111 10.4062153,8.22552719 10.4701443,8.25394007 C10.7755827,8.43152053 11.1591565,8.33917869 11.4645949,7.99112098 C11.8694784,7.43706992 11.5285239,6.56337403 10.4701443,6.4 C10.3422863,6.38579356 10.1931188,6.37158713 10.0510544,6.37158713 C9.87347392,6.38579356 9.69589345,6.43551609 9.55382908,6.48523862 C8.4173141,6.88301887 8.06925638,8.25394007 9.29100999,9.66748058 C9.39045505,9.75982242 9.47569367,9.85926748 9.56803552,9.9445061 Z" id="path3725_4_" fill="#FFC200"></path>
                <path d="M24.7760266,7.50810211 C25.0175361,7.47968923 25.2732519,7.44417314 25.5147614,7.42286349 C25.5289678,7.42286349 25.5573807,7.42286349 25.5928968,7.42286349 C25.7988901,5.89567148 25.8699223,4.15538291 25.8841287,1.95338513 C25.8841287,1.95338513 25.8841287,1.95338513 25.8699223,1.95338513 C25.7562708,1.95338513 25.6426193,1.96759156 25.5147614,1.96759156 C25.1596004,1.981798 24.8186459,2.01021088 24.4847947,2.05283019 C24.1012209,2.11675916 23.7247503,2.16648169 23.3482797,2.25882353 C23.1067703,2.3227525 22.8652608,2.37247503 22.6379578,2.436404 L22.6237514,2.45061043 C22.8865705,2.84128746 23.1351831,3.2390677 23.3482797,3.62974473 C23.845505,4.54605993 24.2219756,5.4481687 24.4847947,6.32896781 C24.6055494,6.73385128 24.6978912,7.13163152 24.7760266,7.50810211 Z" id="path3727_4_" fill="#FFC200"></path>
                <path d="M6.91143174,34.4861265 C7.07480577,34.1522752 7.17425083,33.7260821 7.23107658,33.2146504 L7.21687014,12.7147614 L14.0856826,12.7147614 C13.8228635,12.636626 13.5600444,12.572697 13.2830189,12.4732519 C12.3524972,12.1678135 11.3509434,11.6847947 10.4843507,11.0881243 C10.1504994,10.8608213 9.84506104,10.6051054 9.56803552,10.3493896 C8.87902331,9.71009989 8.38890122,8.96426193 8.26104329,8.14739179 C8.09766926,8.53096559 7.77802442,9.07791343 7.50099889,9.43307436 C7.93429523,10.363596 8.62330744,11.109434 9.57513873,11.6208657 C9.68879023,11.6847947 9.81664817,11.7345172 9.9445061,11.7984462 L9.81664817,11.9902331 C9.73140954,11.9476138 9.65327414,11.9049945 9.58934517,11.8765816 C8.50965594,11.3083241 7.93429523,10.7400666 7.36603774,9.71720311 C7.25238624,9.88057714 7.10321865,10.0368479 6.94694784,10.200222 C6.88301887,10.2712542 6.8190899,10.3422863 6.7409545,10.427525 C6.78357381,10.5553829 6.85460599,10.6903441 6.94694784,10.818202 C7.38024417,11.4290788 8.21842397,12.0115427 8.39600444,12.0399556 L8.23263041,12.2175361 C7.69278579,11.9405105 7.26659267,11.5569367 6.94694784,11.2017758 C6.78357381,10.9957825 6.65571587,10.8110988 6.55627081,10.6335183 C6.33607103,10.8679245 6.01642619,11.1875694 5.79622642,11.3935627 C6.11587125,11.5072142 6.57047725,11.9760266 6.627303,12.2104329 L6.43551609,12.3524972 C6.29345172,12.0186459 5.96670366,11.6918979 5.58312986,11.56404 L4.87280799,12.0896781 C5.30610433,12.2317425 5.5618202,12.6437292 5.73229745,12.963374 L5.50499445,13.1551609 C5.40554939,12.7786903 4.97935627,12.3809101 4.58867925,12.281465 L4.31165372,12.4448391 L3.89256382,12.7218646 C4.03462819,12.8071032 4.18379578,12.9136515 4.31165372,13.0415094 C5.10011099,13.7447281 5.6399556,14.9096559 5.94539401,16.2592675 C6.47813541,18.6104329 6.45682575,21.4588235 6.32186459,23.227525 C6.24372919,24.1935627 6.13007769,25.7207547 5.81043285,27.0277469 C5.51920089,28.0079911 5.05038846,28.881687 4.31165372,29.3433962 C3.84284129,29.6488346 3.28168701,29.7980022 2.57846837,29.6985572 C3.03307436,30.2526082 3.2745838,30.6788013 4.0772475,30.5651498 C4.16248613,30.5509434 4.24062153,30.536737 4.3045505,30.5012209 C5.88146504,30.0679245 6.30055494,28.6472808 6.5917869,27.2976693 L6.71964484,27.7664817 C6.38579356,29.5564928 5.41975583,30.536737 4.3045505,30.8279689 C4.1127636,30.8705882 3.92097669,30.9061043 3.73629301,30.9061043 L4.190899,31.6803552 C4.23351831,31.6945616 4.26903441,31.708768 4.3045505,31.7229745 C5.09300777,31.9147614 6.65571587,30.9487236 6.57047725,29.9187569 L6.73385128,30.3236404 C6.79778024,31.1760266 5.10721421,32.1917869 4.36847947,31.9857936 L4.63129856,32.9518313 C4.96514983,33.3354051 6.44972253,32.9802442 6.64150943,32.163374 L6.86170921,32.3267481 C6.62019978,33.0654828 5.12852386,33.7900111 4.54605993,33.1578246 C4.46082131,33.2217536 4.3826859,33.2714761 4.31875694,33.3354051 C3.6936737,33.9036626 3.80732519,34.7205327 4.31875694,35.217758 C4.52475028,35.409545 4.8017758,35.5516093 5.10721421,35.6155383 C5.93118757,35.672364 6.56337403,35.3029967 6.91143174,34.4861265 Z" id="path3729_4_" fill="#FFC200"></path>
                <path d="M15.0019978,8.11897891 L15.69101,9.64617092 C15.9964484,9.88768036 16.5647059,9.9800222 17.282131,9.92319645 C17.6514983,9.88057714 18.0208657,9.82375139 18.454162,9.70299667 C17.9853496,9.49700333 17.6017758,9.30521643 17.282131,9.09211987 C16.6215316,8.65882353 16.1598224,8.14028857 15.5773585,7.22397336 L15.3429523,6.79067703 C15.9112098,6.05194229 16.5647059,5.36293008 17.2892342,4.76625971 C18.063485,4.10566038 18.9158713,3.5445061 19.8108768,3.07569367 C19.9245283,3.01176471 20.0523862,2.96204218 20.173141,2.89811321 C20.2370699,2.86970033 20.2867925,2.83418424 20.336515,2.81287458 C20.8621532,2.57846837 21.3877913,2.35826859 21.927636,2.18779134 C22.1478357,2.10965594 22.3609323,2.05993341 22.5882353,1.99600444 C22.8439512,1.92497225 23.099667,1.8681465 23.3624861,1.80421754 C23.7460599,1.71897891 24.1225305,1.66215316 24.4990011,1.61243063 C24.8328524,1.56981132 25.1880133,1.54139845 25.5289678,1.52719201 C25.7207547,1.51298557 25.9125416,1.51298557 26.0972253,1.51298557 C26.2748058,1.51298557 26.4665927,1.51298557 26.6583796,1.52719201 C27.0135405,1.54139845 27.354495,1.56981132 27.6883463,1.61243063 C28.0719201,1.65504994 28.4625971,1.71187569 28.8248613,1.80421754 C29.0876804,1.8681465 29.3504994,1.91786903 29.5991121,1.99600444 C29.8193119,2.05993341 30.0324084,2.10965594 30.2597114,2.18779134 C30.799556,2.36537181 31.3394007,2.57846837 31.8508324,2.81287458 C31.9147614,2.84128746 31.9502775,2.87680355 32.0142064,2.89811321 C32.1278579,2.96204218 32.2699223,3.01176471 32.3835738,3.07569367 C33.2856826,3.5445061 34.1380688,4.10566038 34.9052164,4.76625971 C35.6155383,5.36293008 36.2761376,6.05194229 36.8514983,6.79067703 L36.6170921,7.22397336 C36.0346282,8.14028857 35.5658158,8.65172031 34.9123196,9.09211987 C34.5926748,9.31231964 34.209101,9.49700333 33.754495,9.70299667 C34.1593785,9.81664817 34.5571587,9.89478357 34.9123196,9.92319645 C35.6226415,9.98712542 36.1980022,9.89478357 36.5034406,9.64617092 L37.1853496,8.11897891 L37.4410655,7.55072142 L37.9382908,6.45682575 C37.9382908,6.45682575 37.9382908,6.45682575 37.9524972,6.45682575 C37.1924528,5.10011099 36.1482797,3.963596 34.9194229,3.06148724 C34.145172,2.49322974 33.299889,2.01021088 32.3977802,1.61243063 C32.2841287,1.54850166 32.1562708,1.51298557 32.0284129,1.4490566 C31.4601554,1.22885683 30.8776915,1.04417314 30.2739179,0.880799112 C29.8051054,0.767147614 29.3220866,0.660599334 28.8461709,0.589567148 C28.4839068,0.511431743 28.0861265,0.475915649 27.7096559,0.447502775 C27.3758047,0.4190899 27.0277469,0.383573807 26.6796892,0.383573807 C26.4879023,0.36936737 26.2961154,0.36936737 26.118535,0.36936737 C25.9267481,0.36936737 25.7349612,0.36936737 25.5502775,0.383573807 C25.1951165,0.383573807 24.854162,0.411986681 24.5203108,0.447502775 C24.136737,0.475915649 23.7602664,0.518534961 23.3837958,0.589567148 C22.9007769,0.660599334 22.417758,0.767147614 21.9560488,0.880799112 C21.3593785,1.04417314 20.7769145,1.23596004 20.2015538,1.4490566 C20.0879023,1.51298557 19.9600444,1.54850166 19.8392897,1.61243063 C18.9371809,2.00310766 18.0847947,2.48612653 17.3176471,3.06148724 C16.0958935,3.963596 15.0517203,5.10721421 14.2987791,6.45682575 L14.7960044,7.55072142 L15.0019978,8.11897891 Z" id="path3731_4_" fill="#FFC200"></path>
                <path d="M30.2384018,2.66370699 C30.1105438,2.62108768 29.9968923,2.57846837 29.854828,2.53584906 C29.3718091,3.26037736 29.0379578,4.02042175 28.8035516,4.77336293 C28.4981132,5.82463929 28.3844617,6.86170921 28.3489456,7.74961154 C28.49101,7.79223085 28.654384,7.83485017 28.8035516,7.89167592 C28.9811321,7.95560488 29.1374029,8.00532741 29.2865705,8.06925638 C29.5067703,7.48679245 29.8406215,6.78357381 30.2384018,6.07325194 C30.7356271,5.19955605 31.3465039,4.3045505 31.9928968,3.62264151 C32.0355161,3.5800222 32.0781354,3.53029967 32.1349612,3.49478357 C32.0710322,3.4663707 32.0355161,3.43085461 31.9928968,3.41664817 C31.4246393,3.11831299 30.8421754,2.86970033 30.2384018,2.66370699 Z" id="path3737_4_" fill="#FFC200"></path>
                <path d="M30.2384018,8.11897891 C30.2099889,8.24683685 30.181576,8.36048835 30.1531632,8.47413984 C30.181576,8.48834628 30.2170921,8.50255272 30.2384018,8.51675916 C30.472808,8.64461709 30.7214206,8.79378468 30.9487236,8.93584906 C31.2399556,8.53096559 31.5596004,8.03374029 31.9786903,7.52230855 C32.0923418,7.38024417 32.2059933,7.23107658 32.3480577,7.06770255 C32.9163152,6.42841287 33.6195339,5.74650388 34.5500555,5.10011099 C34.5358491,5.08590455 34.5216426,5.07169811 34.5216426,5.07169811 C33.9107658,4.56026637 33.23596,4.10566038 32.5540511,3.71498335 C32.5256382,3.68657048 32.4759156,3.67236404 32.454606,3.64395117 C32.4403996,3.64395117 32.4403996,3.64395117 32.4403996,3.64395117 C32.4119867,3.67236404 32.3764706,3.70077691 32.3551609,3.72918979 C32.227303,3.85704772 32.1136515,4.00621532 31.9857936,4.14827969 C31.0552719,5.38423973 30.5154273,6.97536071 30.2384018,8.11897891 Z" id="path3739_4_" fill="#FFC200"></path>
                <path d="M37.78202,9.41886792 C36.9935627,10.0936737 35.9138735,10.3706992 34.8839068,10.2499445 C34.2588235,10.1789123 33.6621532,9.97291898 33.1294118,9.6390677 C33.6124306,8.86481687 34.209101,8.28235294 34.8839068,7.82064373 C35.3527192,7.50099889 35.8641509,7.22397336 36.3684795,6.98246393 C36.0133185,6.56337403 35.3172031,5.7891232 34.8839068,5.39134295 C34.8697003,5.37713651 34.8554939,5.36293008 34.8412875,5.34872364 C34.827081,5.34872364 34.827081,5.3345172 34.827081,5.3345172 C33.4277469,6.36448391 32.7529412,7.47968923 32.3622642,8.381798 C32.2201998,8.73695893 32.0994451,9.04239734 31.9928968,9.31231964 C31.9644839,9.40466149 31.9218646,9.48990011 31.8934517,9.57513873 L31.8650388,9.58934517 C31.9076582,9.63196448 31.9502775,9.66748058 31.9928968,9.68879023 C32.1065483,9.77402886 32.2486127,9.8663707 32.3622642,9.93029967 C33.1507214,10.427525 34.0173141,10.7471698 34.8839068,10.8963374 C36.2974473,11.1378468 37.7465039,10.9602664 38.8759156,10.3422863 C38.9895671,10.2783574 39.0961154,10.2286349 39.1955605,10.1647059 C39.9129856,9.63196448 39.8845727,8.89322974 38.8759156,8.60199778 C38.5846837,8.51675916 38.1869034,8.47413984 37.7251942,8.47413984 C38.0732519,8.6872364 38.1229745,9.14894562 37.78202,9.41886792 Z" id="path3741_4_" fill="#FFC200"></path>
                <path d="M41.681687,8.25394007 C41.7243063,8.22552719 41.7811321,8.18290788 41.845061,8.12608213 C41.845061,8.14028857 41.845061,8.14028857 41.845061,8.14028857 C42.0652608,7.83485017 42.1220866,7.60754717 42.072364,7.4299667 C42.0439512,7.31631521 41.9587125,7.22397336 41.8521643,7.16714761 C41.7882353,7.13873474 41.7385128,7.1245283 41.6745838,7.10321865 C41.6035516,7.08901221 41.5325194,7.08901221 41.454384,7.10321865 C41.2483907,7.13163152 41.063707,7.24528302 40.999778,7.49389567 L40.7795782,7.45127636 C40.8648169,7.09611543 41.1489456,6.92563818 41.4188679,6.88301887 C41.5041065,6.86881243 41.582242,6.86881243 41.6603774,6.88301887 C41.745616,6.89722531 41.8521643,6.92563818 41.9374029,6.96825749 C42.0794673,7.05349612 42.2144284,7.18845727 42.2570477,7.37314095 C42.3849057,7.8845727 42.2570477,8.22552719 41.9658158,8.53096559 C41.8663707,8.64461709 41.7598224,8.75116537 41.6603774,8.85061043 C40.7085461,9.78113208 39.7922309,10.4559378 38.8475028,10.8963374 C37.5476138,11.4930078 36.2406215,11.6208657 34.8554939,11.3509434 C34.0812431,11.1875694 33.2927858,10.8963374 32.4759156,10.4772475 C32.4332963,10.4630411 32.3764706,10.4488346 32.3338513,10.4133185 C32.2201998,10.3706992 32.0923418,10.3138735 31.9644839,10.2499445 C31.5667037,10.072364 31.1902331,9.8663707 30.7569367,9.62486127 C30.6148724,9.53962264 30.4230855,9.40466149 30.2170921,9.2554939 C29.7837958,8.96426193 29.2652608,8.59489456 28.7893452,8.51675916 C28.3560488,8.4173141 27.9511654,8.54517203 27.6528302,9.1418424 C27.6528302,9.15604883 27.6386238,9.17025527 27.6386238,9.18446171 C27.5391787,9.4472808 27.5604883,9.71009989 27.6528302,9.95871254 C27.8446171,10.427525 28.3418424,10.8110988 28.7893452,10.818202 C28.9172031,10.8324084 29.0521643,10.818202 29.172919,10.754273 C29.4357381,10.5766926 29.4499445,10.3493896 29.3931188,10.1149834 C29.2013319,9.97291898 28.9953385,9.82375139 28.7964484,9.74561598 C28.6188679,9.68168701 28.4412875,9.68168701 28.3134295,9.84506104 L28.2139845,9.74561598 C28.3773585,9.55382908 28.5975583,9.5254162 28.7964484,9.60355161 C29.0734739,9.68168701 29.3576027,9.89478357 29.5849057,10.1007769 C29.627525,10.1149834 29.6630411,10.1433962 29.6630411,10.1433962 C29.8690344,10.2854606 30.0537181,10.4204218 30.2312986,10.52697 C30.6859046,10.8039956 31.1334073,11.0099889 31.7584906,11.3438402 C31.836626,11.3864595 31.9005549,11.4290788 31.9786903,11.4574917 C32.0923418,11.5356271 32.2344062,11.5853496 32.3480577,11.6350721 C32.3622642,11.6421754 32.3764706,11.6492786 32.390677,11.6563818 C32.0071032,11.5214206 31.4956715,11.336737 31.2115427,11.3012209 C30.3591565,11.2017758 29.3291898,11.5427303 28.9740289,12.4235294 L28.945616,12.6153163 C30.8421754,11.2941176 32.4048835,12.0186459 34.5429523,12.3524972 C34.6495006,12.3738069 34.7560488,12.3880133 34.8625971,12.409323 C35.4734739,12.4945616 36.0843507,12.5229745 36.6952275,12.4874584 C37.4552719,12.4448391 38.1798002,12.345394 38.854606,12.1536071 C39.863263,11.8623751 40.8008879,11.3935627 41.6674806,10.7400666 C41.972919,10.4985572 42.2783574,10.2286349 42.5695893,9.95160932 C42.6619312,9.8663707 42.7613762,9.75982242 42.8466149,9.6745838 C44.054162,8.26104329 43.7132075,6.89012209 42.5695893,6.49234184 C42.427525,6.42841287 42.2499445,6.39289678 42.072364,6.37869034 C41.9302997,6.37869034 41.7811321,6.39289678 41.6674806,6.40710322 C40.6162042,6.57047725 40.2681465,7.43706992 40.6659267,7.9982242 C40.9855716,8.34628191 41.3691454,8.42441731 41.681687,8.25394007 Z" id="path3743_4_" fill="#FFC200"></path>
                <path d="M28.5620422,59.1413984 C28.6259711,58.7507214 28.6899001,58.3671476 28.8035516,58.0190899 C29.0237514,57.4082131 29.4144284,56.8399556 30.2312986,56.2503885 C30.2597114,56.2219756 30.2739179,56.2077691 30.309434,56.1864595 C30.2952275,56.1864595 30.2668147,56.2006659 30.2312986,56.2148724 C29.6985572,56.3924528 29.2155383,56.5842397 28.8035516,56.8399556 C28.3063263,57.1596004 27.9298557,57.5786903 27.6670366,58.2392897 C27.581798,58.4594895 27.5036626,58.7223085 27.4468368,59.0135405 L27.6670366,59.0419534 L28.5620422,59.1413984 Z" id="path3745_4_" fill="#FFC200"></path>
                <path d="M47.8614872,29.3789123 C47.1369589,28.8958935 46.6823529,28.0079911 46.3982242,27.0135405 C46.0643729,25.6994451 45.9436182,24.1651498 45.872586,23.2133185 C45.6950055,20.7769145 45.709212,16.2308546 47.1440622,13.8370699 C47.3500555,13.5032186 47.5773585,13.2261931 47.854384,13.0059933 C47.982242,12.8923418 48.1314095,12.8 48.2876804,12.7147614 L47.854384,12.4235294 L47.5986681,12.2601554 C47.2079911,12.3596004 46.781798,12.7573807 46.6823529,13.1338513 L46.4479467,12.9420644 C46.6397336,12.6224195 46.8670366,12.2175361 47.3145394,12.0683685 L46.6042175,11.5427303 C46.2206437,11.6705882 45.9081021,11.9973363 45.773141,12.3311876 L45.5671476,12.1891232 C45.6310766,11.954717 46.0785794,11.4859046 46.3982242,11.3722531 C46.1922309,11.1662597 45.8583796,10.8466149 45.6381798,10.6122087 C45.5387347,10.7897891 45.4108768,10.981576 45.2403996,11.1804661 C44.9207547,11.5498335 44.5016648,11.9192009 43.954717,12.1962264 L43.8126526,12.0186459 C43.9902331,11.9902331 44.8071032,11.4077691 45.2403996,10.7968923 C45.3327414,10.6690344 45.4037736,10.5340733 45.4463929,10.4062153 C45.3753607,10.3209767 45.318535,10.2428413 45.2403996,10.1789123 C45.0770255,10.0155383 44.9349612,9.85926748 44.8213097,9.69589345 C44.2530522,10.7116537 43.6705882,11.2870144 42.5837958,11.8552719 C42.5056604,11.8836848 42.4417314,11.9334073 42.3493896,11.9689234 L42.2215316,11.7771365 C42.3493896,11.7132075 42.4630411,11.663485 42.590899,11.599556 C43.5427303,11.0881243 44.2175361,10.3422863 44.6792453,9.41176471 C44.3880133,9.05660377 44.0825749,8.50965594 43.9049945,8.12608213 C43.7771365,8.94295228 43.2799112,9.68879023 42.590899,10.3280799 C42.3138735,10.590899 42.0084351,10.8395117 41.6887902,11.0668147 C40.8150943,11.663485 39.8064373,12.1465039 38.8759156,12.4519423 C38.6059933,12.5513873 38.3573807,12.6224195 38.0732519,12.6934517 L44.9420644,12.6934517 L44.9420644,33.200444 C44.9846837,33.7118757 45.0841287,34.1309656 45.2475028,34.4719201 C45.6026637,35.2887902 46.2277469,35.6510544 47.1014428,35.5658158 C47.3926748,35.5018868 47.6554939,35.3740289 47.8614872,35.1964484 C48.3942286,34.6992231 48.536293,33.8397336 47.8614872,33.2501665 C47.7975583,33.1862375 47.7336293,33.1507214 47.6554939,33.1081021 C47.07303,33.7331853 45.5813541,33.0228635 45.3398446,32.2770255 L45.5600444,32.1136515 C45.7660377,32.9305216 47.236404,33.2785794 47.5702553,32.9021088 L47.8330744,31.936071 C47.1085461,32.1420644 45.41798,31.1192009 45.4677026,30.2739179 L45.6310766,29.8690344 C45.5529412,30.8990011 47.0588235,31.836626 47.8685905,31.6732519 C47.9112098,31.6590455 47.9680355,31.6448391 48.0106548,31.6306326 L48.4652608,30.8563818 C48.2592675,30.8563818 48.0603774,30.8137625 47.8685905,30.7711432 C46.7604883,30.4799112 45.808657,29.499667 45.4748058,27.7238624 L45.6168701,27.2550499 C45.8938957,28.590455 46.3200888,29.9968923 47.8685905,30.4586016 C47.9538291,30.4870144 48.0461709,30.5012209 48.1314095,30.5225305 C48.9340733,30.636182 49.1258602,30.2597114 49.5804661,29.7056604 C48.8772475,29.8193119 48.30899,29.6914539 47.8614872,29.3789123 Z" id="path3747_4_" fill="#FFC200"></path>
                <path d="M46.5758047,35.9138735 C45.8867925,35.7078801 45.5813541,36.0417314 45.4534961,36.6384018 C45.2617092,36.254828 45.2759156,35.9138735 45.2475028,35.4308546 C45.2475028,35.3882353 45.2332963,35.345616 45.2332963,35.3029967 C44.8284129,35.7576027 44.6934517,36.2690344 44.9420644,36.8657048 L45.2475028,37.554717 L45.4534961,38.0235294 L45.7447281,39.7780244 C45.5813541,39.5862375 45.3895671,39.408657 45.2475028,39.2239734 C45.2332963,39.2097669 45.2190899,39.1955605 45.2048835,39.1813541 L44.8994451,38.5562708 C44.8710322,38.9753607 44.7218646,39.4228635 44.8355161,39.8277469 C44.9207547,40.1615982 45.0628191,40.381798 45.2403996,40.6588235 C45.2688124,40.7014428 45.3043285,40.7440622 45.3327414,40.8008879 C46.3485017,42.5695893 46.3840178,42.5695893 46.1496115,44.5655938 C45.8157603,44.345394 45.5671476,43.9973363 45.3895671,43.4859046 C45.4037736,43.208879 45.4748058,43.0952275 45.4321865,42.8110988 C45.41798,42.7116537 45.3327414,42.6193119 45.2403996,42.5340733 C45.1267481,42.4346282 45.0130966,42.3422863 44.9491676,42.2286349 C44.9491676,41.8237514 45.2688124,41.4685905 44.9775805,41.1205327 L44.6863485,40.7014428 C44.5869034,41.5041065 44.4803552,41.7100999 44.3524972,42.4914539 C44.3098779,42.8253052 44.2104329,43.500111 44.0754717,43.8126526 C43.7700333,44.5513873 43.272808,44.7928968 43.436182,45.7660377 C43.599556,46.781798 43.9476138,47.790455 43.3083241,49.3673696 L42.9176471,50.1984462 L42.5980022,49.9214206 L42.5198668,49.8503885 C42.5482797,49.8219756 42.5837958,49.7722531 42.5980022,49.7509434 C43.0668147,49.0264151 42.8039956,48.5433962 42.5980022,48.0745838 L42.5980022,48.0603774 C42.5340733,47.754939 42.5198668,47.1937847 42.5980022,46.8670366 C42.6122087,46.8386238 42.6122087,46.8244173 42.6122087,46.7960044 C42.6122087,46.8102109 42.6122087,46.8102109 42.5980022,46.8244173 C42.3778024,47.1795782 42.0013319,47.754939 41.7811321,48.081687 C41.7527192,48.145616 41.7172031,48.1811321 41.6958935,48.2237514 C41.4756937,48.5291898 41.2625971,48.8488346 41.127636,49.1897891 C40.999778,49.5449501 40.9855716,49.8148724 40.9074362,50.1842397 C40.6801332,51.0437292 40.8221976,51.8321865 40.3746948,52.4572697 C39.5436182,53.4375139 39.600444,52.8266371 39.8490566,52.1660377 C39.7851276,52.0239734 39.6075472,51.9032186 39.6075472,51.7469478 C39.5933407,51.5054384 39.7496115,51.4415094 39.7993341,51.2071032 L39.9769145,50.4328524 C39.6217536,50.8519423 39.2736959,51.2923418 38.8972253,51.7043285 C38.7338513,51.881909 38.5775805,52.0381798 38.4,52.1873474 C37.9951165,52.563818 37.6399556,52.8266371 37.2208657,53.181798 C37.0006659,53.3593785 36.8159822,53.6150943 36.6099889,53.8423973 C36.4679245,53.9844617 36.1127636,54.1762486 35.9067703,54.2472808 C35.5871254,54.3751387 35.2461709,54.5100999 34.9052164,54.6379578 C34.0741398,54.9433962 33.200444,55.2488346 32.3835738,55.6395117 C32.2699223,55.7034406 32.1420644,55.7673696 32.0142064,55.8312986 C31.3536071,56.2006659 30.7569367,56.6197558 30.2597114,57.1667037 C30.1318535,57.308768 29.9968923,57.4863485 29.8761376,57.6497225 C29.4073252,58.3387347 29.0876804,59.0064373 28.881687,59.6954495 L28.817758,59.6812431 L27.6812431,59.5391787 L27.6528302,59.5391787 L27.5533851,60.427081 L26.7009989,60.2992231 C26.7009989,60.4768036 26.672586,60.6330744 26.6441731,60.7964484 C26.5518313,61.3504994 26.3103219,61.7980022 26.0830189,61.9045505 C25.8557159,61.8051054 25.6,61.3504994 25.5147614,60.7964484 C25.4863485,60.6330744 25.4721421,60.4768036 25.4721421,60.2992231 L24.6055494,60.427081 L24.5061043,59.5391787 L24.4776915,59.5391787 L23.3411765,59.6812431 L23.2772475,59.6954495 C23.0712542,59.0064373 22.7516093,58.3387347 22.2970033,57.6497225 C22.1691454,57.4863485 22.0554939,57.3158713 21.9063263,57.1667037 C21.409101,56.6126526 20.8124306,56.1864595 20.1518313,55.8312986 C20.0381798,55.7673696 19.9245283,55.7034406 19.7895671,55.6395117 C18.9869034,55.2488346 18.1132075,54.936293 17.2679245,54.6379578 C16.9340733,54.5100999 16.5789123,54.3751387 16.2663707,54.2472808 C16.0603774,54.1691454 15.7052164,53.9844617 15.5631521,53.8423973 C15.3571587,53.6221976 15.1795782,53.3593785 14.9664817,53.181798 C14.5331853,52.8266371 14.1780244,52.5709212 13.773141,52.1873474 C13.5955605,52.045283 13.4392897,51.881909 13.2759156,51.7043285 C12.8923418,51.2994451 12.5655938,50.8661487 12.1962264,50.4328524 L12.3738069,51.2071032 C12.4377358,51.4415094 12.5940067,51.4983352 12.5798002,51.7469478 C12.5655938,51.9103219 12.3738069,52.0239734 12.3169811,52.1660377 C12.5584906,52.8266371 12.6224195,53.4375139 11.8055494,52.4572697 C11.3509434,51.8321865 11.500111,51.0437292 11.2657048,50.1842397 C11.1875694,49.8148724 11.1662597,49.5449501 11.0384018,49.1897891 C10.9105438,48.8559378 10.6832408,48.5291898 10.4772475,48.2237514 C10.4346282,48.1811321 10.3991121,48.1385128 10.3778024,48.081687 C10.1576027,47.7620422 9.78113208,47.1795782 9.5609323,46.8244173 C9.5609323,46.8102109 9.54672586,46.8102109 9.54672586,46.7960044 C9.54672586,46.8244173 9.5609323,46.8386238 9.5609323,46.8670366 C9.6390677,47.2008879 9.62486127,47.754939 9.5609323,48.0603774 L9.5609323,48.0745838 C9.35493896,48.5433962 9.09211987,49.0264151 9.5609323,49.7509434 C9.58934517,49.7793563 9.60355161,49.8290788 9.6390677,49.8503885 L9.5609323,49.9214206 L9.2554939,50.1984462 L8.85061043,49.3673696 C8.22552719,47.790455 8.55937847,46.7889012 8.73695893,45.7660377 C8.90033296,44.7857936 8.381798,44.5584906 8.0763596,43.8126526 C7.94850166,43.4930078 7.85615982,42.818202 7.79933407,42.4914539 C7.67147614,41.7029967 7.5791343,41.4970033 7.4654828,40.7014428 L7.17425083,41.1205327 C6.89722531,41.4756937 7.20266371,41.8166482 7.20266371,42.2286349 C7.13873474,42.3422863 7.02508324,42.4346282 6.91143174,42.5340733 C6.82619312,42.6193119 6.74805771,42.7116537 6.71964484,42.8110988 C6.67702553,43.0881243 6.74805771,43.208879 6.78357381,43.4859046 C6.5917869,43.9973363 6.35027747,44.345394 6.00932297,44.5655938 C5.78201998,42.5695893 5.80332963,42.5695893 6.84039956,40.8008879 C6.86881243,40.7369589 6.90432852,40.7014428 6.91853496,40.6588235 C7.09611543,40.381798 7.25238624,40.1615982 7.33762486,39.8277469 C7.43706992,39.4228635 7.29500555,38.9895671 7.27369589,38.5562708 L6.95405105,39.1813541 C6.93984462,39.1955605 6.92563818,39.2097669 6.91143174,39.2239734 C6.76936737,39.4157603 6.5917869,39.5933407 6.41420644,39.7780244 L6.71964484,38.0235294 L6.91143174,37.554717 L7.21687014,36.8657048 C7.45837958,36.2690344 7.33052164,35.7576027 6.92563818,35.3029967 C6.92563818,35.345616 6.92563818,35.3882353 6.91143174,35.4308546 C6.89722531,35.9138735 6.89722531,36.2619312 6.71964484,36.6384018 C6.57758047,36.0417314 6.2863485,35.7078801 5.59733629,35.9138735 C5.87436182,36.7165372 5.90277469,37.9738069 5.77491676,39.4583796 C5.2563818,42.0368479 4.90832408,43.8836848 5.08590455,45.7163152 C5.30610433,48.0958935 5.88856826,49.7225305 6.90432852,51.1218646 C7.51520533,51.9387347 8.26104329,52.6703663 9.19156493,53.4233074 L8.3036626,51.7469478 L7.60044395,49.9569367 C7.30921199,49.282131 7.28079911,48.5078801 7.18135405,47.7833518 C7.10321865,46.2348502 7.73540511,45.4463929 7.18135405,43.6990011 C8.08346282,44.5513873 7.70699223,45.3043285 7.65016648,46.2774695 C7.62175361,46.8102109 7.53651498,47.3713651 7.59334073,47.9041065 C7.70699223,48.7564928 7.89877913,49.608879 8.1900111,50.4115427 C8.4954495,51.2994451 8.96426193,52.2796892 9.5609323,53.0965594 C9.83795782,53.4872364 10.1291898,53.8352941 10.4488346,54.1265261 C10.4630411,54.1265261 10.4630411,54.1265261 10.4772475,54.1265261 C11.1662597,54.3325194 11.7771365,54.5100999 12.3596004,54.6379578 C12.054162,54.3467259 11.7345172,54.0554939 11.4716981,53.7358491 C10.6406215,52.7200888 10.7471698,52.0026637 10.6406215,50.7738069 C10.5980022,50.3831299 10.5553829,50.0137625 10.4772475,49.6514983 C10.3778024,49.2466149 10.2357381,48.8488346 9.96581576,48.4581576 C10.1718091,48.6925638 10.3351831,48.8559378 10.4772475,49.054828 C10.7116537,49.4099889 10.8608213,49.8574917 10.9318535,50.9869034 C11.1378468,52.9331853 11.7061043,53.6577137 12.9775805,54.7658158 C13.0770255,54.7800222 13.1835738,54.8084351 13.2830189,54.8297447 C13.8228635,54.9433962 14.3769145,55.0357381 14.9877913,55.1351831 C14.1993341,54.6805771 13.7021088,54.2970033 13.2830189,53.4446171 C13.254606,53.3664817 13.2190899,53.3167592 13.1977802,53.2386238 C13.2261931,53.2812431 13.2617092,53.3238624 13.2830189,53.3664817 C14.0430633,54.3325194 14.6965594,54.6805771 15.7478357,55.2772475 C16.2734739,55.3766926 16.7778024,55.4974473 17.2750277,55.6324084 C18.1629301,55.8668147 19.0082131,56.1722531 19.7966704,56.6339623 C19.9245283,56.7120977 20.0381798,56.7760266 20.1589345,56.8683685 C20.6135405,57.1596004 21.0326304,57.5289678 21.4304107,57.9622642 C21.6221976,58.1895671 21.7855716,58.4736959 21.9134295,58.7507214 C22.2046615,59.3900111 22.3964484,60.1074362 22.5527192,60.7041065 L23.3411765,60.6046615 L23.7247503,60.5620422 L24.0017758,61.5280799 L24.4847947,61.4144284 L24.9038846,61.3291898 C24.98202,61.8406215 25.1809101,62.4372919 25.5147614,62.9061043 C25.6781354,63.1334073 25.8699223,63.3251942 26.0830189,63.4885683 C26.2890122,63.3251942 26.4736959,63.1334073 26.6441731,62.9061043 C26.9993341,62.4372919 27.1769145,61.8406215 27.2550499,61.3291898 L27.6741398,61.4144284 L28.1571587,61.5280799 L28.4341842,60.5620422 L28.817758,60.6046615 L29.6062153,60.7041065 C29.7837958,60.1074362 29.9613762,59.3900111 30.245505,58.7507214 C30.3733629,58.4736959 30.536737,58.1966704 30.7285239,57.9622642 C31.1263041,57.5289678 31.545394,57.1596004 32,56.8683685 C32.1136515,56.7831299 32.2557159,56.7049945 32.3693674,56.6339623 C33.1578246,56.1651498 33.9960044,55.8597114 34.89101,55.6324084 C35.3882353,55.5045505 35.9067703,55.390899 36.418202,55.2772475 C37.4694784,54.6805771 38.1229745,54.3254162 38.8830189,53.3664817 C38.9114317,53.3238624 38.9611543,53.2812431 38.9824639,53.2386238 C38.9540511,53.3096559 38.9043285,53.3664817 38.8830189,53.4446171 C38.463929,54.2970033 37.9667037,54.6805771 37.1924528,55.1351831 C37.7891232,55.0357381 38.3502775,54.9433962 38.8830189,54.8297447 C38.9824639,54.8155383 39.0890122,54.7871254 39.2026637,54.7658158 C40.4741398,53.6577137 41.0210877,52.9331853 41.227081,50.9869034 C41.3052164,49.8503885 41.4472808,49.3957825 41.6958935,49.054828 C41.8237514,48.8488346 41.9871254,48.6854606 42.1931188,48.4581576 C41.9302997,48.8559378 41.7882353,49.2466149 41.6958935,49.6514983 C41.6035516,50.0208657 41.5680355,50.3760266 41.5325194,50.7738069 C41.4188679,51.9955605 41.518313,52.7058824 40.7014428,53.7358491 C40.4244173,54.0554939 40.1047725,54.3467259 39.7993341,54.6379578 C40.381798,54.5100999 40.9926748,54.3325194 41.6958935,54.1265261 L41.7100999,54.1265261 C42.0297447,53.8352941 42.3209767,53.4872364 42.5980022,53.0965594 C43.1946726,52.2796892 43.6776915,51.3065483 43.9689234,50.4115427 C44.2601554,49.608879 44.4519423,48.7493896 44.5655938,47.9041065 C44.6437292,47.3713651 44.5371809,46.8102109 44.5016648,46.2774695 C44.4377358,45.2972253 44.0683685,44.5442841 44.9704772,43.6990011 C44.4164262,45.4534961 45.0486127,46.2419534 44.9704772,47.7833518 C44.8852386,48.5078801 44.8568257,49.282131 44.5513873,49.9569367 L43.8481687,51.7469478 L42.9744728,53.4233074 C43.890788,52.663263 44.6508324,51.9387347 45.2475028,51.1218646 C46.2774695,49.7225305 46.8670366,48.0887902 47.0659267,45.7163152 C47.2435072,43.8836848 46.9238624,42.0439512 46.3769145,39.4583796 C46.2490566,37.9738069 46.2845727,36.7165372 46.5758047,35.9138735 Z M7.47968923,50.9798002 C7.25238624,50.6246393 7.07480577,50.3049945 6.91143174,50.0137625 C5.68967814,47.5489456 6.88301887,46.6610433 6.82619312,44.6863485 C6.86881243,44.8781354 6.90432852,45.0699223 6.91143174,45.2403996 C6.95405105,45.5742508 6.93984462,45.8796892 6.91143174,46.1922309 C6.83329634,47.0801332 6.63440622,47.8970033 6.91143174,49.2253052 C7.02508324,49.7438402 7.20266371,50.3049945 7.47968923,50.9798002 Z M10.4843507,52.7698113 C10.5837958,53.1036626 10.7613762,53.47303 11.0099889,53.8779134 C10.7897891,53.6008879 10.6193119,53.3522752 10.4843507,53.1391787 C9.53251942,51.654606 10.1504994,51.2284129 9.97291898,49.2750277 C10.4559378,50.5749168 10.0155383,51.4344062 10.4843507,52.7698113 Z M13.2830189,52.4572697 C13.254606,52.3791343 13.2403996,52.3152053 13.2190899,52.2370699 L13.2048835,51.9316315 L13.2759156,52.0168701 L13.5103219,52.2796892 C14.03596,53.9986681 14.8173141,53.8708102 15.9751387,55.0641509 C14.8315205,54.2472808 13.7234184,53.863707 13.2830189,52.4572697 Z M38.9327414,52.2370699 C38.918535,52.3152053 38.9043285,52.3791343 38.8688124,52.4572697 C38.4497225,53.8708102 37.3203108,54.2472808 36.1695893,55.0641509 C37.327414,53.8708102 38.1300777,53.9986681 38.6344062,52.2796892 L38.8617092,52.0168701 L38.9469478,51.9316315 L38.9327414,52.2370699 Z M41.681687,53.1391787 C41.5396226,53.3593785 41.3620422,53.6079911 41.1489456,53.8779134 C41.390455,53.47303 41.5680355,53.1036626 41.681687,52.7698113 C42.136293,51.4344062 41.6958935,50.5678135 42.1789123,49.2750277 C42.0084351,51.2284129 42.6264151,51.654606 41.681687,53.1391787 Z M45.2475028,50.0137625 C45.1054384,50.3049945 44.9136515,50.6246393 44.6863485,50.9798002 C44.963374,50.3049945 45.1409545,49.7438402 45.2475028,49.2253052 C45.5245283,47.9041065 45.3256382,47.0801332 45.2475028,46.1922309 C45.2190899,45.8867925 45.2048835,45.5813541 45.2475028,45.2261931 C45.2617092,45.0628191 45.2901221,44.8710322 45.3398446,44.6934517 C45.2901221,46.6681465 46.490566,47.5560488 45.2475028,50.0137625 Z" id="path3749_4_" fill="#FFC200" fill-rule="nonzero"></path>
                <path d="M48.3587125,25.8059933 C47.9041065,26.2037736 47.8330744,27.5889012 48.92697,27.8304107 C50.0847947,27.9582686 50.226859,27.2763596 50.0492786,26.8288568 C49.8432852,26.345838 49.1613762,26.118535 48.8417314,26.9283019 L48.7138735,26.736515 C48.6286349,26.1398446 49.5023307,25.8486127 49.9711432,26.0972253 C50.5109878,26.4310766 50.7738069,27.3687014 50.1771365,27.9156493 C49.8716981,28.1784684 49.3389567,28.3134295 48.6783574,28.1784684 C48.372919,28.0790233 48.0958935,27.8446171 47.8756937,27.4894562 C47.6981132,27.2124306 47.5560488,26.8785794 47.4566038,26.4736959 C46.945172,24.5629301 47.0872364,21.6648169 47.8756937,20.1305216 C48.2308546,19.4557159 48.6925638,19.0508324 49.2750277,19.1289678 C49.3460599,18.454162 48.5149834,17.8219756 47.8756937,18.0776915 C47.6554939,18.1629301 47.4708102,18.354717 47.3358491,18.6885683 C47.0304107,19.4130966 47.0943396,20.045283 47.0019978,20.6490566 L46.8741398,20.6490566 C46.8741398,18.4470588 47.0943396,16.7209767 47.8756937,15.2932297 C47.9893452,15.07303 48.1385128,14.8599334 48.2805771,14.6539401 C49.3744728,13.1267481 51.4628191,14.2206437 50.6956715,15.527636 C50.2410655,16.1882353 49.5875694,16.0674806 49.2253052,15.6697003 L49.3105438,15.3926748 C49.4526082,15.5063263 49.9356271,15.8899001 50.3049945,15.4566038 C51.0082131,14.554495 49.6301887,14.0075472 48.9553829,14.5260821 C48.0248613,15.2150943 48.1669256,16.827525 49.5236404,17.0193119 C50.8945616,17.282131 51.8392897,16.2805771 51.7966704,14.845727 C51.6332963,12.863929 48.9624861,12.3951165 47.854384,13.5245283 C47.7762486,13.6026637 47.7123196,13.6879023 47.6483907,13.7660377 C46.6681465,15.2932297 46.4266371,16.3587125 46.1993341,19.1289678 C46.1211987,20.5283019 46.099889,21.8423973 46.1993341,23.1991121 C46.2774695,24.3782464 46.4337403,25.5786903 46.7249723,26.8856826 L46.7391787,26.8856826 C46.9309656,27.7593785 47.3074362,28.4483907 47.8472808,28.8674806 C48.3587125,29.272364 49.0406215,29.4357381 49.8432852,29.2581576 C53.2670366,27.9795782 50.681465,23.781576 48.3587125,25.8059933 Z" id="path3751_4_" fill="#FFC200"></path>
                <path d="M26.118535,56.6410655 C26.118535,56.6410655 26.1043285,56.6410655 26.0901221,56.6410655 C26.0759156,56.6410655 26.0759156,56.6410655 26.0617092,56.6410655 C25.8557159,56.6410655 25.6781354,56.7263041 25.5289678,56.8612653 C25.1738069,57.1524972 24.9465039,57.7136515 24.9465039,58.345838 C24.9465039,58.9851276 25.1738069,59.5391787 25.5289678,59.8304107 C25.6923418,59.972475 25.8628191,60.0506104 26.0617092,60.0506104 C26.0759156,60.0506104 26.0759156,60.0506104 26.0901221,60.0506104 C26.1043285,60.0506104 26.118535,60.0506104 26.118535,60.0506104 C26.3103219,60.0506104 26.4879023,59.972475 26.6441731,59.8304107 C26.9993341,59.5391787 27.2266371,58.9922309 27.2266371,58.345838 C27.2266371,57.6994451 26.9993341,57.1524972 26.6441731,56.8612653 C26.4736959,56.7263041 26.3103219,56.6410655 26.118535,56.6410655 Z M26.0830189,59.1342952 C25.7917869,59.1342952 25.6,58.7649279 25.6,58.345838 C25.6,57.9125416 25.7917869,57.5573807 26.0830189,57.5573807 C26.3742508,57.5573807 26.5518313,57.9125416 26.5518313,58.345838 C26.5518313,58.7720311 26.3742508,59.1342952 26.0830189,59.1342952 Z" id="path3753_4_" fill="#FFC200" fill-rule="nonzero"></path>
                <path d="M27.7096559,12.4235294 C27.6954495,12.4235294 27.6954495,12.409323 27.6812431,12.409323 C27.2621532,12.1465039 26.8927858,11.7203108 26.6512764,11.2514983 C26.6157603,11.1662597 26.5589345,10.4772475 26.5589345,10.4772475 C26.5873474,10.5624861 26.6228635,10.6477248 26.6512764,10.7116537 C26.8927858,11.1946726 27.2763596,11.5853496 27.6812431,11.8836848 C27.8446171,11.9973363 28.0008879,12.1038846 28.1642619,12.1749168 C28.3986681,12.0470588 28.6330744,11.8836848 28.8248613,11.7061043 C29.0024417,11.56404 29.1587125,11.4006659 29.2936737,11.2230855 C29.1516093,11.2230855 29.0166482,11.2230855 28.8887902,11.208879 C28.8745838,11.208879 28.8603774,11.208879 28.8248613,11.208879 C28.5194229,11.1449501 28.1216426,11.0170921 27.8233074,10.818202 C27.7806881,10.7755827 27.7380688,10.7471698 27.6954495,10.7045505 C27.290566,10.2712542 27.0277469,9.59644839 27.2408435,9.01398446 C27.3260821,8.80799112 27.4681465,8.62330744 27.6954495,8.47413984 C27.8588235,8.37469478 28.0293008,8.29655938 28.2566038,8.24683685 C28.0648169,8.18290788 27.87303,8.13318535 27.6954495,8.06925638 C27.3402886,7.96981132 27.0135405,7.90588235 26.6654828,7.86326304 C26.5234184,7.8490566 26.3600444,7.8490566 26.1966704,7.8490566 C26.1824639,7.8490566 26.1682575,7.8490566 26.1682575,7.8490566 C26.1540511,7.8490566 26.1540511,7.8490566 26.1398446,7.8490566 C26.1398446,7.8490566 26.1256382,7.8490566 26.1114317,7.8490566 C26.0972253,7.8490566 26.0972253,7.8490566 26.0830189,7.8490566 C26.0688124,7.8490566 26.054606,7.8490566 26.054606,7.8490566 C26.0403996,7.8490566 26.0261931,7.8490566 26.0119867,7.8490566 C25.8486127,7.8490566 25.7065483,7.8490566 25.5431743,7.86326304 C25.209323,7.90588235 24.854162,7.9627081 24.5132075,8.06925638 C24.3356271,8.13318535 24.1438402,8.18290788 23.9591565,8.24683685 C24.1793563,8.31076582 24.36404,8.37469478 24.5132075,8.47413984 C24.7334073,8.61620422 24.8825749,8.80799112 24.9678135,9.01398446 C25.1880133,9.59644839 24.9394007,10.2712542 24.5132075,10.7045505 C24.4705882,10.7471698 24.4350721,10.7826859 24.399556,10.818202 C24.0799112,11.0241953 23.6892342,11.1520533 23.3837958,11.208879 C23.3695893,11.208879 23.3411765,11.208879 23.3198668,11.208879 C23.1920089,11.2230855 23.0570477,11.2230855 22.9149834,11.2230855 C23.0428413,11.4006659 23.2062153,11.5569367 23.3837958,11.7061043 C23.5897891,11.8836848 23.8028857,12.0399556 24.0443951,12.1749168 C24.2077691,12.0967814 24.36404,11.9973363 24.527414,11.8836848 C24.9322974,11.5924528 25.3158713,11.1946726 25.5573807,10.7116537 C25.6213097,10.6122087 25.6568257,10.4914539 25.6852386,10.3564928 C25.6852386,10.3564928 25.6,11.1449501 25.5573807,11.2443951 C25.3158713,11.7132075 24.9465039,12.1322974 24.527414,12.4022198 C24.5132075,12.4022198 24.5132075,12.4164262 24.4990011,12.4164262 C24.5132075,12.4164262 24.5132075,12.4306326 24.527414,12.4306326 C24.8825749,12.5940067 25.2235294,12.7218646 25.5573807,12.8071032 C25.7491676,12.8710322 25.9551609,12.9065483 26.1256382,12.9491676 C26.3032186,12.9065483 26.4950055,12.863929 26.6867925,12.8071032 C27.0419534,12.7218646 27.3829079,12.5869034 27.7167592,12.4306326 C27.6883463,12.4377358 27.6883463,12.4235294 27.7096559,12.4235294 Z M25.5218646,8.99977802 C25.2448391,8.82219756 25.2803552,8.51675916 25.5218646,8.32497225 C25.6497225,8.22552719 25.8415094,8.13318535 26.0901221,8.13318535 C26.3174251,8.13318535 26.509212,8.21842397 26.6512764,8.32497225 C26.8927858,8.51675916 26.9283019,8.82219756 26.6512764,8.99977802 C26.5376249,9.09211987 26.345838,9.12763596 26.0901221,9.1418424 C25.827303,9.12763596 25.6355161,9.08501665 25.5218646,8.99977802 Z" id="path3755_4_" fill="#FFC200" fill-rule="nonzero"></path>
                <path d="M27.4397336,2.05993341 C27.3047725,2.04572697 27.1769145,2.02441731 27.0419534,2.00310766 C26.7152053,2.81287458 26.5305216,3.61553829 26.445283,4.39689234 C26.345838,5.48368479 26.4381798,6.52075472 26.5802442,7.40155383 C26.736515,7.41576027 26.8927858,7.4299667 27.0561598,7.45837958 C27.2408435,7.47968923 27.4113208,7.50099889 27.5604883,7.53651498 C27.6599334,6.92563818 27.8517203,6.16559378 28.100333,5.39134295 C28.4128746,4.43240844 28.8390677,3.44506104 29.336293,2.64239734 C29.3718091,2.58557159 29.4073252,2.53584906 29.4499445,2.47902331 C29.3860155,2.46481687 29.336293,2.44350721 29.2865705,2.436404 C28.6899001,2.27302997 28.0648169,2.14517203 27.4397336,2.05993341 Z" id="path3757_4_" fill="#FFC200"></path>
                <path d="M16.6499445,17.7154273 L16.9553829,17.6372919 L17.1187569,17.5662597 L17.0974473,17.4881243 L16.8559378,17.3176471 L15.0801332,16.2876804 L14.8670366,16.1669256 C14.6752497,16.2592675 14.5687014,16.3302997 14.5118757,16.536293 C15.0375139,16.8062153 16.1100999,17.3673696 16.6499445,17.7154273 Z" id="path3761_3_" fill="#FFC200"></path>
            </g>
        </g>
    </g>
</svg>